sevenseg4dig/simulation/qsim/sevenseg4dig.msim.vcd
$comment
	File created using the following command:
		vcd file sevenseg4dig.msim.vcd -direction
$end
$date
	Fri Apr 30 00:16:18 2021
$end
$version
	ModelSim Version 2020.1
$end
$timescale
	1ps
$end

$scope module sevenseg4dig_vlg_vec_tst $end
$var reg 1 ! clk $end
$var reg 1 " reset $end
$var wire 1 # disp [6] $end
$var wire 1 $ disp [5] $end
$var wire 1 % disp [4] $end
$var wire 1 & disp [3] $end
$var wire 1 ' disp [2] $end
$var wire 1 ( disp [1] $end
$var wire 1 ) disp [0] $end

$scope module i1 $end
$var wire 1 * gnd $end
$var wire 1 + vcc $end
$var wire 1 , unknown $end
$var tri1 1 - devclrn $end
$var tri1 1 . devpor $end
$var tri1 1 / devoe $end
$var wire 1 0 disp[0]~output_o $end
$var wire 1 1 disp[1]~output_o $end
$var wire 1 2 disp[2]~output_o $end
$var wire 1 3 disp[3]~output_o $end
$var wire 1 4 disp[4]~output_o $end
$var wire 1 5 disp[5]~output_o $end
$var wire 1 6 disp[6]~output_o $end
$var wire 1 7 clk~input_o $end
$var wire 1 8 clk~inputclkctrl_outclk $end
$var wire 1 9 reset~input_o $end
$var wire 1 : conta|qflop|q~0_combout $end
$var wire 1 ; conta|qflop|q~1_combout $end
$var wire 1 < conta|qflop|q~2_combout $end
$var wire 1 = conta|qflop|q~3_combout $end
$var wire 1 > conta|qflop|q~4_combout $end
$var wire 1 ? decod|WideOr6~0_combout $end
$var wire 1 @ decod|WideOr5~0_combout $end
$var wire 1 A decod|WideOr4~0_combout $end
$var wire 1 B decod|WideOr3~0_combout $end
$var wire 1 C decod|WideOr2~0_combout $end
$var wire 1 D decod|WideOr1~0_combout $end
$var wire 1 E decod|WideOr0~0_combout $end
$var wire 1 F conta|qflop|q [11] $end
$var wire 1 G conta|qflop|q [10] $end
$var wire 1 H conta|qflop|q [9] $end
$var wire 1 I conta|qflop|q [8] $end
$var wire 1 J conta|qflop|q [7] $end
$var wire 1 K conta|qflop|q [6] $end
$var wire 1 L conta|qflop|q [5] $end
$var wire 1 M conta|qflop|q [4] $end
$var wire 1 N conta|qflop|q [3] $end
$var wire 1 O conta|qflop|q [2] $end
$var wire 1 P conta|qflop|q [1] $end
$var wire 1 Q conta|qflop|q [0] $end
$upscope $end
$upscope $end
$enddefinitions $end
#0
$dumpvars
0!
0"
0)
1(
1'
1&
1%
1$
1#
0*
1+
x,
1-
1.
1/
00
11
12
13
14
15
16
07
08
09
1:
0;
0<
1=
0>
0?
0@
0A
0B
0C
0D
0E
0Q
0P
0O
0N
zM
zL
zK
zJ
zI
zH
zG
zF
$end
#5000
1!
17
18
1Q
1E
1B
1A
1@
1;
0:
01
02
03
06
0#
0&
0'
0(
#10000
0!
07
08
#15000
1!
17
18
1P
0Q
0E
1C
0B
0A
1?
1:
10
12
13
04
16
1#
0%
1&
1'
1)
#20000
0!
07
08
#25000
1!
17
18
1Q
0C
1A
1<
0;
0:
02
14
1%
0'
#30000
0!
07
08
#35000
1!
17
18
1O
0P
0Q
1E
1B
0@
1:
11
03
06
0#
0&
1(
#40000
0!
07
08
#45000
1!
17
18
1Q
0E
1D
0B
0=
1;
0:
13
05
16
1#
0$
1&
#50000
0!
07
08
#55000
1!
17
18
1P
0Q
0A
1=
1>
1:
12
1'
0>
#60000
0!
07
08
#65000
1!
17
18
1Q
0D
1B
1A
1@
0=
0?
0<
0;
0:
00
01
02
03
15
1$
0&
0'
0(
0)
1>
#70000
0!
07
08
#75000
1!
17
18
1N
0O
0P
0Q
0B
0A
0@
1=
1?
1:
10
11
12
13
1&
1'
1(
1)
#80000
0!
07
08
#85000
1!
17
18
1Q
1A
1;
0:
02
0'
#90000
0!
07
08
#95000
1!
17
18
1P
0Q
1B
0A
1:
12
03
0&
1'
#100000
0!
07
08
#105000
1!
17
18
1Q
1E
1D
0B
1<
0;
0:
13
05
06
0#
0$
1&
#110000
0!
07
08
#115000
1!
17
18
1O
0P
0Q
0E
1C
0?
1:
00
04
16
1#
0%
0)
#120000
0!
07
08
#125000
1!
17
18
1Q
1E
0D
0C
1@
0=
1?
1;
0:
10
01
14
15
06
0#
1$
1%
0(
1)
#130000
0!
07
08
#135000
1!
17
18
1P
0Q
0E
1D
1C
0@
1=
0>
1:
11
04
05
16
1#
0$
0%
1(
1>
#140000
0!
07
08
#145000
1!
17
18
1Q
1B
1A
0=
0<
0;
0:
02
03
0&
0'
0>
#150000
0!
07
08
#155000
1!
17
18
0N
0O
0P
0Q
0D
0C
0B
0A
1=
0?
1:
00
12
13
14
15
1$
1%
1&
1'
0)
#160000
0!
07
08
#165000
1!
17
18
1Q
1E
1B
1A
1@
1;
0:
01
02
03
06
0#
0&
0'
0(
#170000
0!
07
08
#175000
1!
17
18
1P
0Q
0E
1C
0B
0A
1?
1:
10
12
13
04
16
1#
0%
1&
1'
1)
#180000
0!
07
08
#185000
1!
17
18
1Q
0C
1A
1<
0;
0:
02
14
1%
0'
#190000
0!
07
08
#195000
1!
17
18
1O
0P
0Q
1E
1B
0@
1:
11
03
06
0#
0&
1(
#200000
0!
07
08
#205000
1!
17
18
1Q
0E
1D
0B
0=
1;
0:
13
05
16
1#
0$
1&
#210000
0!
07
08
#215000
1!
17
18
1P
0Q
0A
1=
1>
1:
12
1'
0>
#220000
0!
07
08
#225000
1!
17
18
1Q
0D
1B
1A
1@
0=
0?
0<
0;
0:
00
01
02
03
15
1$
0&
0'
0(
0)
1>
#230000
0!
07
08
#235000
1!
17
18
1N
0O
0P
0Q
0B
0A
0@
1=
1?
1:
10
11
12
13
1&
1'
1(
1)
#240000
0!
07
08
#245000
1!
17
18
1Q
1A
1;
0:
02
0'
#250000
0!
07
08
#255000
1!
17
18
1P
0Q
1B
0A
1:
12
03
0&
1'
#260000
0!
07
08
#265000
1!
17
18
1Q
1E
1D
0B
1<
0;
0:
13
05
06
0#
0$
1&
#270000
0!
07
08
#275000
1!
17
18
1O
0P
0Q
0E
1C
0?
1:
00
04
16
1#
0%
0)
#280000
0!
07
08
#285000
1!
17
18
1Q
1E
0D
0C
1@
0=
1?
1;
0:
10
01
14
15
06
0#
1$
1%
0(
1)
#290000
0!
07
08
#295000
1!
17
18
1P
0Q
0E
1D
1C
0@
1=
0>
1:
11
04
05
16
1#
0$
0%
1(
1>
#300000
0!
07
08
#305000
1!
17
18
1Q
1B
1A
0=
0<
0;
0:
02
03
0&
0'
0>
#310000
0!
07
08
#315000
1!
17
18
0N
0O
0P
0Q
0D
0C
0B
0A
1=
0?
1:
00
12
13
14
15
1$
1%
1&
1'
0)
#320000
0!
07
08
#325000
1!
17
18
1Q
1E
1B
1A
1@
1;
0:
01
02
03
06
0#
0&
0'
0(
#330000
0!
07
08
#335000
1!
17
18
1P
0Q
0E
1C
0B
0A
1?
1:
10
12
13
04
16
1#
0%
1&
1'
1)
#340000
0!
07
08
#345000
1!
17
18
1Q
0C
1A
1<
0;
0:
02
14
1%
0'
#350000
0!
07
08
#355000
1!
17
18
1O
0P
0Q
1E
1B
0@
1:
11
03
06
0#
0&
1(
#360000
1"
0!
19
07
08
0<
0:
#365000
1!
17
18
0O
0E
0B
0A
0?
00
12
13
16
1#
1&
1'
0)
#370000
0!
07
08
#375000
1!
17
18
#380000
0!
07
08
#385000
1!
17
18
#390000
0!
07
08
#395000
1!
17
18
#400000
0"
0!
09
07
08
1:
#405000
1!
17
18
1Q
1E
1B
1A
1@
1;
0:
01
02
03
06
0#
0&
0'
0(
#410000
0!
07
08
#415000
1!
17
18
1P
0Q
0E
1C
0B
0A
1?
1:
10
12
13
04
16
1#
0%
1&
1'
1)
#420000
0!
07
08
#425000
1!
17
18
1Q
0C
1A
1<
0;
0:
02
14
1%
0'
#430000
0!
07
08
#435000
1!
17
18
1O
0P
0Q
1E
1B
0@
1:
11
03
06
0#
0&
1(
#440000
0!
07
08
#445000
1!
17
18
1Q
0E
1D
0B
0=
1;
0:
13
05
16
1#
0$
1&
#450000
0!
07
08
#455000
1!
17
18
1P
0Q
0A
1=
1>
1:
12
1'
0>
#460000
0!
07
08
#465000
1!
17
18
1Q
0D
1B
1A
1@
0=
0?
0<
0;
0:
00
01
02
03
15
1$
0&
0'
0(
0)
1>
#470000
0!
07
08
#475000
1!
17
18
1N
0O
0P
0Q
0B
0A
0@
1=
1?
1:
10
11
12
13
1&
1'
1(
1)
#480000
0!
07
08
#485000
1!
17
18
1Q
1A
1;
0:
02
0'
#490000
0!
07
08
#495000
1!
17
18
1P
0Q
1B
0A
1:
12
03
0&
1'
#500000
0!
07
08
#505000
1!
17
18
1Q
1E
1D
0B
1<
0;
0:
13
05
06
0#
0$
1&
#510000
0!
07
08
#515000
1!
17
18
1O
0P
0Q
0E
1C
0?
1:
00
04
16
1#
0%
0)
#520000
0!
07
08
#525000
1!
17
18
1Q
1E
0D
0C
1@
0=
1?
1;
0:
10
01
14
15
06
0#
1$
1%
0(
1)
#530000
0!
07
08
#535000
1!
17
18
1P
0Q
0E
1D
1C
0@
1=
0>
1:
11
04
05
16
1#
0$
0%
1(
1>
#540000
0!
07
08
#545000
1!
17
18
1Q
1B
1A
0=
0<
0;
0:
02
03
0&
0'
0>
#550000
0!
07
08
#555000
1!
17
18
0N
0O
0P
0Q
0D
0C
0B
0A
1=
0?
1:
00
12
13
14
15
1$
1%
1&
1'
0)
#560000
0!
07
08
#565000
1!
17
18
1Q
1E
1B
1A
1@
1;
0:
01
02
03
06
0#
0&
0'
0(
#570000
0!
07
08
#575000
1!
17
18
1P
0Q
0E
1C
0B
0A
1?
1:
10
12
13
04
16
1#
0%
1&
1'
1)
#580000
0!
07
08
#585000
1!
17
18
1Q
0C
1A
1<
0;
0:
02
14
1%
0'
#590000
0!
07
08
#595000
1!
17
18
1O
0P
0Q
1E
1B
0@
1:
11
03
06
0#
0&
1(
#600000
0!
07
08
#605000
1!
17
18
1Q
0E
1D
0B
0=
1;
0:
13
05
16
1#
0$
1&
#610000
0!
07
08
#615000
1!
17
18
1P
0Q
0A
1=
1>
1:
12
1'
0>
#620000
0!
07
08
#625000
1!
17
18
1Q
0D
1B
1A
1@
0=
0?
0<
0;
0:
00
01
02
03
15
1$
0&
0'
0(
0)
1>
#630000
0!
07
08
#635000
1!
17
18
1N
0O
0P
0Q
0B
0A
0@
1=
1?
1:
10
11
12
13
1&
1'
1(
1)
#640000
0!
07
08
#645000
1!
17
18
1Q
1A
1;
0:
02
0'
#650000
0!
07
08
#655000
1!
17
18
1P
0Q
1B
0A
1:
12
03
0&
1'
#660000
0!
07
08
#665000
1!
17
18
1Q
1E
1D
0B
1<
0;
0:
13
05
06
0#
0$
1&
#670000
0!
07
08
#675000
1!
17
18
1O
0P
0Q
0E
1C
0?
1:
00
04
16
1#
0%
0)
#680000
0!
07
08
#685000
1!
17
18
1Q
1E
0D
0C
1@
0=
1?
1;
0:
10
01
14
15
06
0#
1$
1%
0(
1)
#690000
0!
07
08
#695000
1!
17
18
1P
0Q
0E
1D
1C
0@
1=
0>
1:
11
04
05
16
1#
0$
0%
1(
1>
#700000
0!
07
08
#705000
1!
17
18
1Q
1B
1A
0=
0<
0;
0:
02
03
0&
0'
0>
#710000
0!
07
08
#715000
1!
17
18
0N
0O
0P
0Q
0D
0C
0B
0A
1=
0?
1:
00
12
13
14
15
1$
1%
1&
1'
0)
#720000
0!
07
08
#725000
1!
17
18
1Q
1E
1B
1A
1@
1;
0:
01
02
03
06
0#
0&
0'
0(
#730000
0!
07
08
#735000
1!
17
18
1P
0Q
0E
1C
0B
0A
1?
1:
10
12
13
04
16
1#
0%
1&
1'
1)
#740000
0!
07
08
#745000
1!
17
18
1Q
0C
1A
1<
0;
0:
02
14
1%
0'
#750000
0!
07
08
#755000
1!
17
18
1O
0P
0Q
1E
1B
0@
1:
11
03
06
0#
0&
1(
#760000
1"
0!
19
07
08
0<
0:
#765000
1!
17
18
0O
0E
0B
0A
0?
00
12
13
16
1#
1&
1'
0)
#770000
0!
07
08
#775000
1!
17
18
#780000
0!
07
08
#785000
1!
17
18
#790000
0!
07
08
#795000
1!
17
18
#800000
0"
0!
09
07
08
1:
#805000
1!
17
18
1Q
1E
1B
1A
1@
1;
0:
01
02
03
06
0#
0&
0'
0(
#810000
0!
07
08
#815000
1!
17
18
1P
0Q
0E
1C
0B
0A
1?
1:
10
12
13
04
16
1#
0%
1&
1'
1)
#820000
0!
07
08
#825000
1!
17
18
1Q
0C
1A
1<
0;
0:
02
14
1%
0'
#830000
0!
07
08
#835000
1!
17
18
1O
0P
0Q
1E
1B
0@
1:
11
03
06
0#
0&
1(
#840000
0!
07
08
#845000
1!
17
18
1Q
0E
1D
0B
0=
1;
0:
13
05
16
1#
0$
1&
#850000
0!
07
08
#855000
1!
17
18
1P
0Q
0A
1=
1>
1:
12
1'
0>
#860000
0!
07
08
#865000
1!
17
18
1Q
0D
1B
1A
1@
0=
0?
0<
0;
0:
00
01
02
03
15
1$
0&
0'
0(
0)
1>
#870000
0!
07
08
#875000
1!
17
18
1N
0O
0P
0Q
0B
0A
0@
1=
1?
1:
10
11
12
13
1&
1'
1(
1)
#880000
0!
07
08
#885000
1!
17
18
1Q
1A
1;
0:
02
0'
#890000
0!
07
08
#895000
1!
17
18
1P
0Q
1B
0A
1:
12
03
0&
1'
#900000
0!
07
08
#905000
1!
17
18
1Q
1E
1D
0B
1<
0;
0:
13
05
06
0#
0$
1&
#910000
0!
07
08
#915000
1!
17
18
1O
0P
0Q
0E
1C
0?
1:
00
04
16
1#
0%
0)
#920000
0!
07
08
#925000
1!
17
18
1Q
1E
0D
0C
1@
0=
1?
1;
0:
10
01
14
15
06
0#
1$
1%
0(
1)
#930000
0!
07
08
#935000
1!
17
18
1P
0Q
0E
1D
1C
0@
1=
0>
1:
11
04
05
16
1#
0$
0%
1(
1>
#940000
0!
07
08
#945000
1!
17
18
1Q
1B
1A
0=
0<
0;
0:
02
03
0&
0'
0>
#950000
0!
07
08
#955000
1!
17
18
0N
0O
0P
0Q
0D
0C
0B
0A
1=
0?
1:
00
12
13
14
15
1$
1%
1&
1'
0)
#960000
0!
07
08
#965000
1!
17
18
1Q
1E
1B
1A
1@
1;
0:
01
02
03
06
0#
0&
0'
0(
#970000
0!
07
08
#975000
1!
17
18
1P
0Q
0E
1C
0B
0A
1?
1:
10
12
13
04
16
1#
0%
1&
1'
1)
#980000
0!
07
08
#985000
1!
17
18
1Q
0C
1A
1<
0;
0:
02
14
1%
0'
#990000
0!
07
08
#995000
1!
17
18
1O
0P
0Q
1E
1B
0@
1:
11
03
06
0#
0&
1(
