counter/simulation/qsim/counter.msim.vcd
$comment
	File created using the following command:
		vcd file counter.msim.vcd -direction
$end
$date
	Fri Apr 23 16:21:17 2021
$end
$version
	ModelSim Version 2020.1
$end
$timescale
	1ps
$end

$scope module counter_vlg_vec_tst $end
$var reg 1 ! clk $end
$var reg 1 " reset $end
$var wire 1 # q [12] $end
$var wire 1 $ q [11] $end
$var wire 1 % q [10] $end
$var wire 1 & q [9] $end
$var wire 1 ' q [8] $end
$var wire 1 ( q [7] $end
$var wire 1 ) q [6] $end
$var wire 1 * q [5] $end
$var wire 1 + q [4] $end
$var wire 1 , q [3] $end
$var wire 1 - q [2] $end
$var wire 1 . q [1] $end
$var wire 1 / q [0] $end

$scope module i1 $end
$var wire 1 0 gnd $end
$var wire 1 1 vcc $end
$var wire 1 2 unknown $end
$var tri1 1 3 devclrn $end
$var tri1 1 4 devpor $end
$var tri1 1 5 devoe $end
$var wire 1 6 q[0]~output_o $end
$var wire 1 7 q[1]~output_o $end
$var wire 1 8 q[2]~output_o $end
$var wire 1 9 q[3]~output_o $end
$var wire 1 : q[4]~output_o $end
$var wire 1 ; q[5]~output_o $end
$var wire 1 < q[6]~output_o $end
$var wire 1 = q[7]~output_o $end
$var wire 1 > q[8]~output_o $end
$var wire 1 ? q[9]~output_o $end
$var wire 1 @ q[10]~output_o $end
$var wire 1 A q[11]~output_o $end
$var wire 1 B q[12]~output_o $end
$var wire 1 C clk~input_o $end
$var wire 1 D clk~inputclkctrl_outclk $end
$var wire 1 E qflop|q[0]~12_combout $end
$var wire 1 F reset~input_o $end
$var wire 1 G qflop|q[0]~13 $end
$var wire 1 H qflop|q[1]~14_combout $end
$var wire 1 I qflop|q[1]~15 $end
$var wire 1 J qflop|q[2]~16_combout $end
$var wire 1 K qflop|q[2]~17 $end
$var wire 1 L qflop|q[3]~18_combout $end
$var wire 1 M qflop|q[3]~19 $end
$var wire 1 N qflop|q[4]~20_combout $end
$var wire 1 O qflop|q[4]~21 $end
$var wire 1 P qflop|q[5]~22_combout $end
$var wire 1 Q qflop|q[5]~23 $end
$var wire 1 R qflop|q[6]~24_combout $end
$var wire 1 S qflop|q[6]~25 $end
$var wire 1 T qflop|q[7]~26_combout $end
$var wire 1 U qflop|q[7]~27 $end
$var wire 1 V qflop|q[8]~28_combout $end
$var wire 1 W qflop|q[8]~29 $end
$var wire 1 X qflop|q[9]~30_combout $end
$var wire 1 Y qflop|q[9]~31 $end
$var wire 1 Z qflop|q[10]~32_combout $end
$var wire 1 [ qflop|q[10]~33 $end
$var wire 1 \ qflop|q[11]~34_combout $end
$var wire 1 ] qflop|q [11] $end
$var wire 1 ^ qflop|q [10] $end
$var wire 1 _ qflop|q [9] $end
$var wire 1 ` qflop|q [8] $end
$var wire 1 a qflop|q [7] $end
$var wire 1 b qflop|q [6] $end
$var wire 1 c qflop|q [5] $end
$var wire 1 d qflop|q [4] $end
$var wire 1 e qflop|q [3] $end
$var wire 1 f qflop|q [2] $end
$var wire 1 g qflop|q [1] $end
$var wire 1 h qflop|q [0] $end
$upscope $end
$upscope $end
$enddefinitions $end
#0
$dumpvars
0!
0"
0/
0.
0-
0,
0+
0*
0)
0(
0'
0&
0%
0$
0#
00
11
x2
13
14
15
06
07
08
09
0:
0;
0<
0=
0>
0?
0@
0A
0B
0C
0D
1E
0F
0G
0H
1I
0J
0K
0L
1M
0N
0O
0P
1Q
0R
0S
0T
1U
0V
0W
0X
1Y
0Z
0[
0\
0h
0g
0f
0e
0d
0c
0b
0a
0`
0_
0^
0]
$end
#250
1!
1C
1D
1h
16
1G
1/
0E
1H
#500
0!
0C
0D
#750
1!
1C
1D
1g
0h
06
17
0I
0G
1.
0/
0H
1E
1I
1J
1H
0J
#1000
0!
0C
0D
#1250
1!
1C
1D
1h
16
1G
1/
0E
0I
0H
1J
#1500
0!
0C
0D
#1750
1!
1C
1D
1f
0g
0h
06
07
18
1K
1I
0G
1-
0.
0/
0J
1H
1E
0K
1L
1J
0H
0L
#2000
0!
0C
0D
#2250
1!
1C
1D
1h
16
1G
1/
0E
1H
#2500
0!
0C
0D
#2750
1!
1C
1D
1g
0h
06
17
0I
0G
1.
0/
0H
1E
1K
1I
0J
1H
0K
1L
1J
0L
#3000
0!
0C
0D
#3250
1!
1C
1D
1h
16
1G
1/
0E
0I
0H
1K
0J
1L
#3500
0!
0C
0D
#3750
1!
1C
1D
1e
0f
0g
0h
06
07
08
19
0M
0K
1I
0G
1,
0-
0.
0/
0L
1J
1H
1E
1M
1N
1L
0J
0H
0N
#4000
0!
0C
0D
#4250
1!
1C
1D
1h
16
1G
1/
0E
1H
#4500
0!
0C
0D
#4750
1!
1C
1D
1g
0h
06
17
0I
0G
1.
0/
0H
1E
1I
1J
1H
0J
#5000
0!
0C
0D
#5250
1!
1C
1D
1h
16
1G
1/
0E
0I
0H
1J
#5500
0!
0C
0D
#5750
1!
1C
1D
1f
0g
0h
06
07
18
1K
1I
0G
1-
0.
0/
0J
1H
1E
0M
0K
0L
1J
0H
1M
1N
1L
0N
#6000
0!
0C
0D
#6250
1!
1C
1D
1h
16
1G
1/
0E
1H
#6500
0!
0C
0D
#6750
1!
1C
1D
1g
0h
06
17
0I
0G
1.
0/
0H
1E
1K
1I
0J
1H
0M
0K
0L
1J
1M
1N
1L
0N
#7000
0!
0C
0D
#7250
1!
1C
1D
1h
16
1G
1/
0E
0I
0H
1K
0J
0M
0L
1N
#7500
0!
0C
0D
#7750
1!
1C
1D
1d
0e
0f
0g
0h
06
07
08
09
1:
1O
1M
0K
1I
0G
1+
0,
0-
0.
0/
0N
1L
1J
1H
1E
0O
1P
1N
0L
0J
0H
0P
#8000
0!
0C
0D
#8250
1!
1C
1D
1h
16
1G
1/
0E
1H
#8500
0!
0C
0D
#8750
1!
1C
1D
1g
0h
06
17
0I
0G
1.
0/
0H
1E
1I
1J
1H
0J
#9000
0!
0C
0D
#9250
1!
1C
1D
1h
16
1G
1/
0E
0I
0H
1J
#9500
0!
0C
0D
#9750
1!
1C
1D
1f
0g
0h
06
07
18
1K
1I
0G
1-
0.
0/
0J
1H
1E
0K
1L
1J
0H
0L
#10000
0!
0C
0D
#10250
1!
1C
1D
1h
16
1G
1/
0E
1H
#10500
0!
0C
0D
#10750
1!
1C
1D
1g
0h
06
17
0I
0G
1.
0/
0H
1E
1K
1I
0J
1H
0K
1L
1J
0L
#11000
0!
0C
0D
#11250
1!
1C
1D
1h
16
1G
1/
0E
0I
0H
1K
0J
1L
#11500
0!
0C
0D
#11750
1!
1C
1D
1e
0f
0g
0h
06
07
08
19
0M
0K
1I
0G
1,
0-
0.
0/
0L
1J
1H
1E
1O
1M
0N
1L
0J
0H
0O
1P
1N
0P
#12000
0!
0C
0D
#12250
1!
1C
1D
1h
16
1G
1/
0E
1H
#12500
0!
0C
0D
#12750
1!
1C
1D
1g
0h
06
17
0I
0G
1.
0/
0H
1E
1I
1J
1H
0J
#13000
0!
0C
0D
#13250
1!
1C
1D
1h
16
1G
1/
0E
0I
0H
1J
#13500
0!
0C
0D
#13750
1!
1C
1D
1f
0g
0h
06
07
18
1K
1I
0G
1-
0.
0/
0J
1H
1E
0M
0K
0L
1J
0H
1O
1M
0N
1L
0O
1P
1N
0P
#14000
0!
0C
0D
#14250
1!
1C
1D
1h
16
1G
1/
0E
1H
#14500
0!
0C
0D
#14750
1!
1C
1D
1g
0h
06
17
0I
0G
1.
0/
0H
1E
1K
1I
0J
1H
0M
0K
0L
1J
1O
1M
0N
1L
0O
1P
1N
0P
#15000
0!
0C
0D
#15250
1!
1C
1D
1h
16
1G
1/
0E
0I
0H
1K
0J
0M
0L
1O
0N
1P
#15500
0!
0C
0D
#15750
1!
1C
1D
1c
0d
0e
0f
0g
0h
06
07
08
09
0:
1;
0Q
0O
1M
0K
1I
0G
1*
0+
0,
0-
0.
0/
0P
1N
1L
1J
1H
1E
1Q
1R
1P
0N
0L
0J
0H
0R
#16000
0!
0C
0D
#16250
1!
1C
1D
1h
16
1G
1/
0E
1H
#16500
0!
0C
0D
#16750
1!
1C
1D
1g
0h
06
17
0I
0G
1.
0/
0H
1E
1I
1J
1H
0J
#17000
0!
0C
0D
#17250
1!
1C
1D
1h
16
1G
1/
0E
0I
0H
1J
#17500
0!
0C
0D
#17750
1!
1C
1D
1f
0g
0h
06
07
18
1K
1I
0G
1-
0.
0/
0J
1H
1E
0K
1L
1J
0H
0L
#18000
0!
0C
0D
#18250
1!
1C
1D
1h
16
1G
1/
0E
1H
#18500
0!
0C
0D
#18750
1!
1C
1D
1g
0h
06
17
0I
0G
1.
0/
0H
1E
1K
1I
0J
1H
0K
1L
1J
0L
#19000
0!
0C
0D
#19250
1!
1C
1D
1h
16
1G
1/
0E
0I
0H
1K
0J
1L
#19500
0!
0C
0D
#19750
1!
1C
1D
1e
0f
0g
0h
06
07
08
19
0M
0K
1I
0G
1,
0-
0.
0/
0L
1J
1H
1E
1M
1N
1L
0J
0H
0N
#20000
0!
0C
0D
#20250
1!
1C
1D
1h
16
1G
1/
0E
1H
#20500
0!
0C
0D
#20750
1!
1C
1D
1g
0h
06
17
0I
0G
1.
0/
0H
1E
1I
1J
1H
0J
#21000
0!
0C
0D
#21250
1!
1C
1D
1h
16
1G
1/
0E
0I
0H
1J
#21500
0!
0C
0D
#21750
1!
1C
1D
1f
0g
0h
06
07
18
1K
1I
0G
1-
0.
0/
0J
1H
1E
0M
0K
0L
1J
0H
1M
1N
1L
0N
#22000
0!
0C
0D
#22250
1!
1C
1D
1h
16
1G
1/
0E
1H
#22500
0!
0C
0D
#22750
1!
1C
1D
1g
0h
06
17
0I
0G
1.
0/
0H
1E
1K
1I
0J
1H
0M
0K
0L
1J
1M
1N
1L
0N
#23000
0!
0C
0D
#23250
1!
1C
1D
1h
16
1G
1/
0E
0I
0H
1K
0J
0M
0L
1N
#23500
0!
0C
0D
#23750
1!
1C
1D
1d
0e
0f
0g
0h
06
07
08
09
1:
1O
1M
0K
1I
0G
1+
0,
0-
0.
0/
0N
1L
1J
1H
1E
0Q
0O
0P
1N
0L
0J
0H
1Q
1R
1P
0R
#24000
0!
0C
0D
#24250
1!
1C
1D
1h
16
1G
1/
0E
1H
#24500
0!
0C
0D
#24750
1!
1C
1D
1g
0h
06
17
0I
0G
1.
0/
0H
1E
1I
1J
1H
0J
#25000
0!
0C
0D
#25250
1!
1C
1D
1h
16
1G
1/
0E
0I
0H
1J
#25500
0!
0C
0D
#25750
1!
1C
1D
1f
0g
0h
06
07
18
1K
1I
0G
1-
0.
0/
0J
1H
1E
0K
1L
1J
0H
0L
#26000
0!
0C
0D
#26250
1!
1C
1D
1h
16
1G
1/
0E
1H
#26500
0!
0C
0D
#26750
1!
1C
1D
1g
0h
06
17
0I
0G
1.
0/
0H
1E
1K
1I
0J
1H
0K
1L
1J
0L
#27000
0!
0C
0D
#27250
1!
1C
1D
1h
16
1G
1/
0E
0I
0H
1K
0J
1L
#27500
0!
0C
0D
#27750
1!
1C
1D
1e
0f
0g
0h
06
07
08
19
0M
0K
1I
0G
1,
0-
0.
0/
0L
1J
1H
1E
1O
1M
0N
1L
0J
0H
0Q
0O
0P
1N
1Q
1R
1P
0R
#28000
0!
0C
0D
#28250
1!
1C
1D
1h
16
1G
1/
0E
1H
#28500
0!
0C
0D
#28750
1!
1C
1D
1g
0h
06
17
0I
0G
1.
0/
0H
1E
1I
1J
1H
0J
#29000
0!
0C
0D
#29250
1!
1C
1D
1h
16
1G
1/
0E
0I
0H
1J
#29500
0!
0C
0D
#29750
1!
1C
1D
1f
0g
0h
06
07
18
1K
1I
0G
1-
0.
0/
0J
1H
1E
0M
0K
0L
1J
0H
1O
1M
0N
1L
0Q
0O
0P
1N
1Q
1R
1P
0R
#30000
0!
0C
0D
#30250
1!
1C
1D
1h
16
1G
1/
0E
1H
#30500
0!
0C
0D
#30750
1!
1C
1D
1g
0h
06
17
0I
0G
1.
0/
0H
1E
1K
1I
0J
1H
0M
0K
0L
1J
1O
1M
0N
1L
0Q
0O
0P
1N
1Q
1R
1P
0R
#31000
0!
0C
0D
#31250
1!
1C
1D
1h
16
1G
1/
0E
0I
0H
1K
0J
0M
0L
1O
0N
0Q
0P
1R
#31500
0!
0C
0D
#31750
1!
1C
1D
1b
0c
0d
0e
0f
0g
0h
06
07
08
09
0:
0;
1<
1S
1Q
0O
1M
0K
1I
0G
1)
0*
0+
0,
0-
0.
0/
0R
1P
1N
1L
1J
1H
1E
0S
1T
1R
0P
0N
0L
0J
0H
0T
#32000
0!
0C
0D
#32250
1!
1C
1D
1h
16
1G
1/
0E
1H
#32500
0!
0C
0D
#32750
1!
1C
1D
1g
0h
06
17
0I
0G
1.
0/
0H
1E
1I
1J
1H
0J
#33000
0!
0C
0D
#33250
1!
1C
1D
1h
16
1G
1/
0E
0I
0H
1J
#33500
0!
0C
0D
#33750
1!
1C
1D
1f
0g
0h
06
07
18
1K
1I
0G
1-
0.
0/
0J
1H
1E
0K
1L
1J
0H
0L
#34000
0!
0C
0D
#34250
1!
1C
1D
1h
16
1G
1/
0E
1H
#34500
0!
0C
0D
#34750
1!
1C
1D
1g
0h
06
17
0I
0G
1.
0/
0H
1E
1K
1I
0J
1H
0K
1L
1J
0L
#35000
0!
0C
0D
#35250
1!
1C
1D
1h
16
1G
1/
0E
0I
0H
1K
0J
1L
#35500
0!
0C
0D
#35750
1!
1C
1D
1e
0f
0g
0h
06
07
08
19
0M
0K
1I
0G
1,
0-
0.
0/
0L
1J
1H
1E
1M
1N
1L
0J
0H
0N
#36000
0!
0C
0D
#36250
1!
1C
1D
1h
16
1G
1/
0E
1H
#36500
0!
0C
0D
#36750
1!
1C
1D
1g
0h
06
17
0I
0G
1.
0/
0H
1E
1I
1J
1H
0J
#37000
0!
0C
0D
#37250
1!
1C
1D
1h
16
1G
1/
0E
0I
0H
1J
#37500
0!
0C
0D
#37750
1!
1C
1D
1f
0g
0h
06
07
18
1K
1I
0G
1-
0.
0/
0J
1H
1E
0M
0K
0L
1J
0H
1M
1N
1L
0N
#38000
0!
0C
0D
#38250
1!
1C
1D
1h
16
1G
1/
0E
1H
#38500
0!
0C
0D
#38750
1!
1C
1D
1g
0h
06
17
0I
0G
1.
0/
0H
1E
1K
1I
0J
1H
0M
0K
0L
1J
1M
1N
1L
0N
#39000
0!
0C
0D
#39250
1!
1C
1D
1h
16
1G
1/
0E
0I
0H
1K
0J
0M
0L
1N
#39500
0!
0C
0D
#39750
1!
1C
1D
1d
0e
0f
0g
0h
06
07
08
09
1:
1O
1M
0K
1I
0G
1+
0,
0-
0.
0/
0N
1L
1J
1H
1E
0O
1P
1N
0L
0J
0H
0P
#40000
0!
0C
0D
#40250
1!
1C
1D
1h
16
1G
1/
0E
1H
#40500
0!
0C
0D
#40750
1!
1C
1D
1g
0h
06
17
0I
0G
1.
0/
0H
1E
1I
1J
1H
0J
#41000
0!
0C
0D
#41250
1!
1C
1D
1h
16
1G
1/
0E
0I
0H
1J
#41500
0!
0C
0D
#41750
1!
1C
1D
1f
0g
0h
06
07
18
1K
1I
0G
1-
0.
0/
0J
1H
1E
0K
1L
1J
0H
0L
#42000
0!
0C
0D
#42250
1!
1C
1D
1h
16
1G
1/
0E
1H
#42500
0!
0C
0D
#42750
1!
1C
1D
1g
0h
06
17
0I
0G
1.
0/
0H
1E
1K
1I
0J
1H
0K
1L
1J
0L
#43000
0!
0C
0D
#43250
1!
1C
1D
1h
16
1G
1/
0E
0I
0H
1K
0J
1L
#43500
0!
0C
0D
#43750
1!
1C
1D
1e
0f
0g
0h
06
07
08
19
0M
0K
1I
0G
1,
0-
0.
0/
0L
1J
1H
1E
1O
1M
0N
1L
0J
0H
0O
1P
1N
0P
#44000
0!
0C
0D
#44250
1!
1C
1D
1h
16
1G
1/
0E
1H
#44500
0!
0C
0D
#44750
1!
1C
1D
1g
0h
06
17
0I
0G
1.
0/
0H
1E
1I
1J
1H
0J
#45000
0!
0C
0D
#45250
1!
1C
1D
1h
16
1G
1/
0E
0I
0H
1J
#45500
0!
0C
0D
#45750
1!
1C
1D
1f
0g
0h
06
07
18
1K
1I
0G
1-
0.
0/
0J
1H
1E
0M
0K
0L
1J
0H
1O
1M
0N
1L
0O
1P
1N
0P
#46000
0!
0C
0D
#46250
1!
1C
1D
1h
16
1G
1/
0E
1H
#46500
0!
0C
0D
#46750
1!
1C
1D
1g
0h
06
17
0I
0G
1.
0/
0H
1E
1K
1I
0J
1H
0M
0K
0L
1J
1O
1M
0N
1L
0O
1P
1N
0P
#47000
0!
0C
0D
#47250
1!
1C
1D
1h
16
1G
1/
0E
0I
0H
1K
0J
0M
0L
1O
0N
1P
#47500
0!
0C
0D
#47750
1!
1C
1D
1c
0d
0e
0f
0g
0h
06
07
08
09
0:
1;
0Q
0O
1M
0K
1I
0G
1*
0+
0,
0-
0.
0/
0P
1N
1L
1J
1H
1E
1S
1Q
0R
1P
0N
0L
0J
0H
0S
1T
1R
0T
#48000
0!
0C
0D
#48250
1!
1C
1D
1h
16
1G
1/
0E
1H
#48500
0!
0C
0D
#48750
1!
1C
1D
1g
0h
06
17
0I
0G
1.
0/
0H
1E
1I
1J
1H
0J
#49000
0!
0C
0D
#49250
1!
1C
1D
1h
16
1G
1/
0E
0I
0H
1J
#49500
0!
0C
0D
#49750
1!
1C
1D
1f
0g
0h
06
07
18
1K
1I
0G
1-
0.
0/
0J
1H
1E
0K
1L
1J
0H
0L
#50000
0!
0C
0D
#50250
1!
1C
1D
1h
16
1G
1/
0E
1H
#50500
0!
0C
0D
#50750
1!
1C
1D
1g
0h
06
17
0I
0G
1.
0/
0H
1E
1K
1I
0J
1H
0K
1L
1J
0L
#51000
0!
0C
0D
#51250
1!
1C
1D
1h
16
1G
1/
0E
0I
0H
1K
0J
1L
#51500
0!
0C
0D
#51750
1!
1C
1D
1e
0f
0g
0h
06
07
08
19
0M
0K
1I
0G
1,
0-
0.
0/
0L
1J
1H
1E
1M
1N
1L
0J
0H
0N
#52000
0!
0C
0D
#52250
1!
1C
1D
1h
16
1G
1/
0E
1H
#52500
0!
0C
0D
#52750
1!
1C
1D
1g
0h
06
17
0I
0G
1.
0/
0H
1E
1I
1J
1H
0J
#53000
0!
0C
0D
#53250
1!
1C
1D
1h
16
1G
1/
0E
0I
0H
1J
#53500
0!
0C
0D
#53750
1!
1C
1D
1f
0g
0h
06
07
18
1K
1I
0G
1-
0.
0/
0J
1H
1E
0M
0K
0L
1J
0H
1M
1N
1L
0N
#54000
0!
0C
0D
#54250
1!
1C
1D
1h
16
1G
1/
0E
1H
#54500
0!
0C
0D
#54750
1!
1C
1D
1g
0h
06
17
0I
0G
1.
0/
0H
1E
1K
1I
0J
1H
0M
0K
0L
1J
1M
1N
1L
0N
#55000
0!
0C
0D
#55250
1!
1C
1D
1h
16
1G
1/
0E
0I
0H
1K
0J
0M
0L
1N
#55500
0!
0C
0D
#55750
1!
1C
1D
1d
0e
0f
0g
0h
06
07
08
09
1:
1O
1M
0K
1I
0G
1+
0,
0-
0.
0/
0N
1L
1J
1H
1E
0Q
0O
0P
1N
0L
0J
0H
1S
1Q
0R
1P
0S
1T
1R
0T
#56000
0!
0C
0D
#56250
1!
1C
1D
1h
16
1G
1/
0E
1H
#56500
0!
0C
0D
#56750
1!
1C
1D
1g
0h
06
17
0I
0G
1.
0/
0H
1E
1I
1J
1H
0J
#57000
0!
0C
0D
#57250
1!
1C
1D
1h
16
1G
1/
0E
0I
0H
1J
#57500
0!
0C
0D
#57750
1!
1C
1D
1f
0g
0h
06
07
18
1K
1I
0G
1-
0.
0/
0J
1H
1E
0K
1L
1J
0H
0L
#58000
0!
0C
0D
#58250
1!
1C
1D
1h
16
1G
1/
0E
1H
#58500
0!
0C
0D
#58750
1!
1C
1D
1g
0h
06
17
0I
0G
1.
0/
0H
1E
1K
1I
0J
1H
0K
1L
1J
0L
#59000
0!
0C
0D
#59250
1!
1C
1D
1h
16
1G
1/
0E
0I
0H
1K
0J
1L
#59500
0!
0C
0D
#59750
1!
1C
1D
1e
0f
0g
0h
06
07
08
19
0M
0K
1I
0G
1,
0-
0.
0/
0L
1J
1H
1E
1O
1M
0N
1L
0J
0H
0Q
0O
0P
1N
1S
1Q
0R
1P
0S
1T
1R
0T
#60000
0!
0C
0D
#60250
1!
1C
1D
1h
16
1G
1/
0E
1H
#60500
0!
0C
0D
#60750
1!
1C
1D
1g
0h
06
17
0I
0G
1.
0/
0H
1E
1I
1J
1H
0J
#61000
0!
0C
0D
#61250
1!
1C
1D
1h
16
1G
1/
0E
0I
0H
1J
#61500
0!
0C
0D
#61750
1!
1C
1D
1f
0g
0h
06
07
18
1K
1I
0G
1-
0.
0/
0J
1H
1E
0M
0K
0L
1J
0H
1O
1M
0N
1L
0Q
0O
0P
1N
1S
1Q
0R
1P
0S
1T
1R
0T
#62000
0!
0C
0D
#62250
1!
1C
1D
1h
16
1G
1/
0E
1H
#62500
0!
0C
0D
#62750
1!
1C
1D
1g
0h
06
17
0I
0G
1.
0/
0H
1E
1K
1I
0J
1H
0M
0K
0L
1J
1O
1M
0N
1L
0Q
0O
0P
1N
1S
1Q
0R
1P
0S
1T
1R
0T
#63000
0!
0C
0D
#63250
1!
1C
1D
1h
16
1G
1/
0E
0I
0H
1K
0J
0M
0L
1O
0N
0Q
0P
1S
0R
1T
#63500
0!
0C
0D
#63750
1!
1C
1D
1a
0b
0c
0d
0e
0f
0g
0h
06
07
08
09
0:
0;
0<
1=
0U
0S
1Q
0O
1M
0K
1I
0G
1(
0)
0*
0+
0,
0-
0.
0/
0T
1R
1P
1N
1L
1J
1H
1E
1U
1V
1T
0R
0P
0N
0L
0J
0H
0V
#64000
0!
0C
0D
#64250
1!
1C
1D
1h
16
1G
1/
0E
1H
#64500
0!
0C
0D
#64750
1!
1C
1D
1g
0h
06
17
0I
0G
1.
0/
0H
1E
1I
1J
1H
0J
#65000
0!
0C
0D
#65250
1!
1C
1D
1h
16
1G
1/
0E
0I
0H
1J
#65500
0!
0C
0D
#65750
1!
1C
1D
1f
0g
0h
06
07
18
1K
1I
0G
1-
0.
0/
0J
1H
1E
0K
1L
1J
0H
0L
#66000
0!
0C
0D
#66250
1!
1C
1D
1h
16
1G
1/
0E
1H
#66500
0!
0C
0D
#66750
1!
1C
1D
1g
0h
06
17
0I
0G
1.
0/
0H
1E
1K
1I
0J
1H
0K
1L
1J
0L
#67000
0!
0C
0D
#67250
1!
1C
1D
1h
16
1G
1/
0E
0I
0H
1K
0J
1L
#67500
0!
0C
0D
#67750
1!
1C
1D
1e
0f
0g
0h
06
07
08
19
0M
0K
1I
0G
1,
0-
0.
0/
0L
1J
1H
1E
1M
1N
1L
0J
0H
0N
#68000
0!
0C
0D
#68250
1!
1C
1D
1h
16
1G
1/
0E
1H
#68500
0!
0C
0D
#68750
1!
1C
1D
1g
0h
06
17
0I
0G
1.
0/
0H
1E
1I
1J
1H
0J
#69000
0!
0C
0D
#69250
1!
1C
1D
1h
16
1G
1/
0E
0I
0H
1J
#69500
0!
0C
0D
#69750
1!
1C
1D
1f
0g
0h
06
07
18
1K
1I
0G
1-
0.
0/
0J
1H
1E
0M
0K
0L
1J
0H
1M
1N
1L
0N
#70000
0!
0C
0D
#70250
1!
1C
1D
1h
16
1G
1/
0E
1H
#70500
0!
0C
0D
#70750
1!
1C
1D
1g
0h
06
17
0I
0G
1.
0/
0H
1E
1K
1I
0J
1H
0M
0K
0L
1J
1M
1N
1L
0N
#71000
0!
0C
0D
#71250
1!
1C
1D
1h
16
1G
1/
0E
0I
0H
1K
0J
0M
0L
1N
#71500
0!
0C
0D
#71750
1!
1C
1D
1d
0e
0f
0g
0h
06
07
08
09
1:
1O
1M
0K
1I
0G
1+
0,
0-
0.
0/
0N
1L
1J
1H
1E
0O
1P
1N
0L
0J
0H
0P
#72000
0!
0C
0D
#72250
1!
1C
1D
1h
16
1G
1/
0E
1H
#72500
0!
0C
0D
#72750
1!
1C
1D
1g
0h
06
17
0I
0G
1.
0/
0H
1E
1I
1J
1H
0J
#73000
0!
0C
0D
#73250
1!
1C
1D
1h
16
1G
1/
0E
0I
0H
1J
#73500
0!
0C
0D
#73750
1!
1C
1D
1f
0g
0h
06
07
18
1K
1I
0G
1-
0.
0/
0J
1H
1E
0K
1L
1J
0H
0L
#74000
0!
0C
0D
#74250
1!
1C
1D
1h
16
1G
1/
0E
1H
#74500
0!
0C
0D
#74750
1!
1C
1D
1g
0h
06
17
0I
0G
1.
0/
0H
1E
1K
1I
0J
1H
0K
1L
1J
0L
#75000
0!
0C
0D
#75250
1!
1C
1D
1h
16
1G
1/
0E
0I
0H
1K
0J
1L
#75500
0!
0C
0D
#75750
1!
1C
1D
1e
0f
0g
0h
06
07
08
19
0M
0K
1I
0G
1,
0-
0.
0/
0L
1J
1H
1E
1O
1M
0N
1L
0J
0H
0O
1P
1N
0P
#76000
0!
0C
0D
#76250
1!
1C
1D
1h
16
1G
1/
0E
1H
#76500
0!
0C
0D
#76750
1!
1C
1D
1g
0h
06
17
0I
0G
1.
0/
0H
1E
1I
1J
1H
0J
#77000
0!
0C
0D
#77250
1!
1C
1D
1h
16
1G
1/
0E
0I
0H
1J
#77500
0!
0C
0D
#77750
1!
1C
1D
1f
0g
0h
06
07
18
1K
1I
0G
1-
0.
0/
0J
1H
1E
0M
0K
0L
1J
0H
1O
1M
0N
1L
0O
1P
1N
0P
#78000
0!
0C
0D
#78250
1!
1C
1D
1h
16
1G
1/
0E
1H
#78500
0!
0C
0D
#78750
1!
1C
1D
1g
0h
06
17
0I
0G
1.
0/
0H
1E
1K
1I
0J
1H
0M
0K
0L
1J
1O
1M
0N
1L
0O
1P
1N
0P
#79000
0!
0C
0D
#79250
1!
1C
1D
1h
16
1G
1/
0E
0I
0H
1K
0J
0M
0L
1O
0N
1P
#79500
0!
0C
0D
#79750
1!
1C
1D
1c
0d
0e
0f
0g
0h
06
07
08
09
0:
1;
0Q
0O
1M
0K
1I
0G
1*
0+
0,
0-
0.
0/
0P
1N
1L
1J
1H
1E
1Q
1R
1P
0N
0L
0J
0H
0R
#80000
0!
0C
0D
#80250
1!
1C
1D
1h
16
1G
1/
0E
1H
#80500
0!
0C
0D
#80750
1!
1C
1D
1g
0h
06
17
0I
0G
1.
0/
0H
1E
1I
1J
1H
0J
#81000
0!
0C
0D
#81250
1!
1C
1D
1h
16
1G
1/
0E
0I
0H
1J
#81500
0!
0C
0D
#81750
1!
1C
1D
1f
0g
0h
06
07
18
1K
1I
0G
1-
0.
0/
0J
1H
1E
0K
1L
1J
0H
0L
#82000
0!
0C
0D
#82250
1!
1C
1D
1h
16
1G
1/
0E
1H
#82500
0!
0C
0D
#82750
1!
1C
1D
1g
0h
06
17
0I
0G
1.
0/
0H
1E
1K
1I
0J
1H
0K
1L
1J
0L
#83000
0!
0C
0D
#83250
1!
1C
1D
1h
16
1G
1/
0E
0I
0H
1K
0J
1L
#83500
0!
0C
0D
#83750
1!
1C
1D
1e
0f
0g
0h
06
07
08
19
0M
0K
1I
0G
1,
0-
0.
0/
0L
1J
1H
1E
1M
1N
1L
0J
0H
0N
#84000
0!
0C
0D
#84250
1!
1C
1D
1h
16
1G
1/
0E
1H
#84500
0!
0C
0D
#84750
1!
1C
1D
1g
0h
06
17
0I
0G
1.
0/
0H
1E
1I
1J
1H
0J
#85000
0!
0C
0D
#85250
1!
1C
1D
1h
16
1G
1/
0E
0I
0H
1J
#85500
0!
0C
0D
#85750
1!
1C
1D
1f
0g
0h
06
07
18
1K
1I
0G
1-
0.
0/
0J
1H
1E
0M
0K
0L
1J
0H
1M
1N
1L
0N
#86000
0!
0C
0D
#86250
1!
1C
1D
1h
16
1G
1/
0E
1H
#86500
0!
0C
0D
#86750
1!
1C
1D
1g
0h
06
17
0I
0G
1.
0/
0H
1E
1K
1I
0J
1H
0M
0K
0L
1J
1M
1N
1L
0N
#87000
0!
0C
0D
#87250
1!
1C
1D
1h
16
1G
1/
0E
0I
0H
1K
0J
0M
0L
1N
#87500
0!
0C
0D
#87750
1!
1C
1D
1d
0e
0f
0g
0h
06
07
08
09
1:
1O
1M
0K
1I
0G
1+
0,
0-
0.
0/
0N
1L
1J
1H
1E
0Q
0O
0P
1N
0L
0J
0H
1Q
1R
1P
0R
#88000
0!
0C
0D
#88250
1!
1C
1D
1h
16
1G
1/
0E
1H
#88500
0!
0C
0D
#88750
1!
1C
1D
1g
0h
06
17
0I
0G
1.
0/
0H
1E
1I
1J
1H
0J
#89000
0!
0C
0D
#89250
1!
1C
1D
1h
16
1G
1/
0E
0I
0H
1J
#89500
0!
0C
0D
#89750
1!
1C
1D
1f
0g
0h
06
07
18
1K
1I
0G
1-
0.
0/
0J
1H
1E
0K
1L
1J
0H
0L
#90000
0!
0C
0D
#90250
1!
1C
1D
1h
16
1G
1/
0E
1H
#90500
0!
0C
0D
#90750
1!
1C
1D
1g
0h
06
17
0I
0G
1.
0/
0H
1E
1K
1I
0J
1H
0K
1L
1J
0L
#91000
0!
0C
0D
#91250
1!
1C
1D
1h
16
1G
1/
0E
0I
0H
1K
0J
1L
#91500
0!
0C
0D
#91750
1!
1C
1D
1e
0f
0g
0h
06
07
08
19
0M
0K
1I
0G
1,
0-
0.
0/
0L
1J
1H
1E
1O
1M
0N
1L
0J
0H
0Q
0O
0P
1N
1Q
1R
1P
0R
#92000
0!
0C
0D
#92250
1!
1C
1D
1h
16
1G
1/
0E
1H
#92500
0!
0C
0D
#92750
1!
1C
1D
1g
0h
06
17
0I
0G
1.
0/
0H
1E
1I
1J
1H
0J
#93000
0!
0C
0D
#93250
1!
1C
1D
1h
16
1G
1/
0E
0I
0H
1J
#93500
0!
0C
0D
