viernes3/simulation/qsim/mul.msim.vcd
$comment
	File created using the following command:
		vcd file mul.msim.vcd -direction
$end
$date
	Fri May 28 16:58:58 2021
$end
$version
	ModelSim Version 2020.1
$end
$timescale
	1ps
$end

$scope module mul_vlg_vec_tst $end
$var reg 8 ! a [7:0] $end
$var reg 8 " b [7:0] $end
$var wire 1 # c [15] $end
$var wire 1 $ c [14] $end
$var wire 1 % c [13] $end
$var wire 1 & c [12] $end
$var wire 1 ' c [11] $end
$var wire 1 ( c [10] $end
$var wire 1 ) c [9] $end
$var wire 1 * c [8] $end
$var wire 1 + c [7] $end
$var wire 1 , c [6] $end
$var wire 1 - c [5] $end
$var wire 1 . c [4] $end
$var wire 1 / c [3] $end
$var wire 1 0 c [2] $end
$var wire 1 1 c [1] $end
$var wire 1 2 c [0] $end

$scope module i1 $end
$var wire 1 3 gnd $end
$var wire 1 4 vcc $end
$var wire 1 5 unknown $end
$var tri1 1 6 devclrn $end
$var tri1 1 7 devpor $end
$var tri1 1 8 devoe $end
$var wire 1 9 c[0]~output_o $end
$var wire 1 : c[1]~output_o $end
$var wire 1 ; c[2]~output_o $end
$var wire 1 < c[3]~output_o $end
$var wire 1 = c[4]~output_o $end
$var wire 1 > c[5]~output_o $end
$var wire 1 ? c[6]~output_o $end
$var wire 1 @ c[7]~output_o $end
$var wire 1 A c[8]~output_o $end
$var wire 1 B c[9]~output_o $end
$var wire 1 C c[10]~output_o $end
$var wire 1 D c[11]~output_o $end
$var wire 1 E c[12]~output_o $end
$var wire 1 F c[13]~output_o $end
$var wire 1 G c[14]~output_o $end
$var wire 1 H c[15]~output_o $end
$var wire 1 I a[2]~input_o $end
$var wire 1 J b[6]~input_o $end
$var wire 1 K aux~0_combout $end
$var wire 1 L b[5]~input_o $end
$var wire 1 M a[3]~input_o $end
$var wire 1 N aux~1_combout $end
$var wire 1 O a[5]~input_o $end
$var wire 1 P b[3]~input_o $end
$var wire 1 Q aux~3_combout $end
$var wire 1 R b[1]~input_o $end
$var wire 1 S a[7]~input_o $end
$var wire 1 T aux~5_combout $end
$var wire 1 U b[0]~input_o $end
$var wire 1 V aux~49_combout $end
$var wire 1 W b[7]~input_o $end
$var wire 1 X b[4]~input_o $end
$var wire 1 Y aux~45_combout $end
$var wire 1 Z aux~42_combout $end
$var wire 1 [ b[2]~input_o $end
$var wire 1 \ aux~38_combout $end
$var wire 1 ] a[6]~input_o $end
$var wire 1 ^ aux~6_combout $end
$var wire 1 _ aux~48_combout $end
$var wire 1 ` aux~47_combout $end
$var wire 1 a aux~44_combout $end
$var wire 1 b aux~4_combout $end
$var wire 1 c aux~7_combout $end
$var wire 1 d aux~50_combout $end
$var wire 1 e aux~51_combout $end
$var wire 1 f aux~46_combout $end
$var wire 1 g aux~40_combout $end
$var wire 1 h aux~41_combout $end
$var wire 1 i aux~37_combout $end
$var wire 1 j aux~13_combout $end
$var wire 1 k a[4]~input_o $end
$var wire 1 l aux~43_combout $end
$var wire 1 m aux~39_combout $end
$var wire 1 n aux~36_combout $end
$var wire 1 o aux~2_combout $end
$var wire 1 p aux~19_combout $end
$var wire 1 q aux~20_combout $end
$var wire 1 r aux~14_combout $end
$var wire 1 s aux~15_combout $end
$var wire 1 t aux~8_combout $end
$var wire 1 u aux~9_combout $end
$var wire 1 v aux~52_combout $end
$var wire 1 w aux~53_combout $end
$var wire 1 x aux~34_combout $end
$var wire 1 y aux~35_combout $end
$var wire 1 z aux~24_combout $end
$var wire 1 { aux~21_combout $end
$var wire 1 | aux~16_combout $end
$var wire 1 } aux~10_combout $end
$var wire 1 ~ a[1]~input_o $end
$var wire 1 !! aux~31_combout $end
$var wire 1 "! aux~28_combout $end
$var wire 1 #! aux~25_combout $end
$var wire 1 $! aux~26_combout $end
$var wire 1 %! aux~22_combout $end
$var wire 1 &! aux~17_combout $end
$var wire 1 '! aux~54_combout $end
$var wire 1 (! aux~55_combout $end
$var wire 1 )! aux~29_combout $end
$var wire 1 *! a[0]~input_o $end
$var wire 1 +! aux~27_combout $end
$var wire 1 ,! aux~23_combout $end
$var wire 1 -! aux~11_combout $end
$var wire 1 .! aux~33_combout $end
$var wire 1 /! Add0~1 $end
$var wire 1 0! Add0~2_combout $end
$var wire 1 1! aux~12_combout $end
$var wire 1 2! Add1~9 $end
$var wire 1 3! Add1~10_combout $end
$var wire 1 4! aux~18_combout $end
$var wire 1 5! Add2~1 $end
$var wire 1 6! Add2~2_combout $end
$var wire 1 7! Add3~1 $end
$var wire 1 8! Add3~2_combout $end
$var wire 1 9! Add4~1 $end
$var wire 1 :! Add4~2_combout $end
$var wire 1 ;! aux~30_combout $end
$var wire 1 <! Add5~1 $end
$var wire 1 =! Add5~2_combout $end
$var wire 1 >! aux~32_combout $end
$var wire 1 ?! Add6~1 $end
$var wire 1 @! Add6~2_combout $end
$var wire 1 A! Add7~1 $end
$var wire 1 B! Add7~3 $end
$var wire 1 C! Add7~4_combout $end
$var wire 1 D! Add0~3 $end
$var wire 1 E! Add0~4_combout $end
$var wire 1 F! Add1~11 $end
$var wire 1 G! Add1~12_combout $end
$var wire 1 H! Add2~3 $end
$var wire 1 I! Add2~4_combout $end
$var wire 1 J! Add3~3 $end
$var wire 1 K! Add3~4_combout $end
$var wire 1 L! Add4~3 $end
$var wire 1 M! Add4~4_combout $end
$var wire 1 N! Add5~3 $end
$var wire 1 O! Add5~4_combout $end
$var wire 1 P! Add6~3 $end
$var wire 1 Q! Add6~5 $end
$var wire 1 R! Add6~6_combout $end
$var wire 1 S! Add7~5 $end
$var wire 1 T! Add7~6_combout $end
$var wire 1 U! Add0~5 $end
$var wire 1 V! Add0~6_combout $end
$var wire 1 W! Add1~13 $end
$var wire 1 X! Add1~14_combout $end
$var wire 1 Y! Add2~5 $end
$var wire 1 Z! Add2~6_combout $end
$var wire 1 [! Add3~5 $end
$var wire 1 \! Add3~6_combout $end
$var wire 1 ]! Add4~5 $end
$var wire 1 ^! Add4~6_combout $end
$var wire 1 _! Add5~5 $end
$var wire 1 `! Add5~7 $end
$var wire 1 a! Add5~8_combout $end
$var wire 1 b! Add6~7 $end
$var wire 1 c! Add6~8_combout $end
$var wire 1 d! Add7~7 $end
$var wire 1 e! Add7~8_combout $end
$var wire 1 f! Add0~7 $end
$var wire 1 g! Add0~8_combout $end
$var wire 1 h! Add1~15 $end
$var wire 1 i! Add1~16_combout $end
$var wire 1 j! Add2~7 $end
$var wire 1 k! Add2~8_combout $end
$var wire 1 l! Add3~7 $end
$var wire 1 m! Add3~8_combout $end
$var wire 1 n! Add4~7 $end
$var wire 1 o! Add4~9 $end
$var wire 1 p! Add4~10_combout $end
$var wire 1 q! Add5~9 $end
$var wire 1 r! Add5~10_combout $end
$var wire 1 s! Add6~9 $end
$var wire 1 t! Add6~10_combout $end
$var wire 1 u! Add7~9 $end
$var wire 1 v! Add7~10_combout $end
$var wire 1 w! Add0~9 $end
$var wire 1 x! Add0~10_combout $end
$var wire 1 y! Add1~17 $end
$var wire 1 z! Add1~18_combout $end
$var wire 1 {! Add2~9 $end
$var wire 1 |! Add2~10_combout $end
$var wire 1 }! Add3~9 $end
$var wire 1 ~! Add3~11 $end
$var wire 1 !" Add3~12_combout $end
$var wire 1 "" Add4~11 $end
$var wire 1 #" Add4~12_combout $end
$var wire 1 $" Add5~11 $end
$var wire 1 %" Add5~12_combout $end
$var wire 1 &" Add6~11 $end
$var wire 1 '" Add6~12_combout $end
$var wire 1 (" Add7~11 $end
$var wire 1 )" Add7~12_combout $end
$var wire 1 *" Add0~11 $end
$var wire 1 +" Add0~12_combout $end
$var wire 1 ," Add1~19 $end
$var wire 1 -" Add1~20_combout $end
$var wire 1 ." Add2~11 $end
$var wire 1 /" Add2~13 $end
$var wire 1 0" Add2~14_combout $end
$var wire 1 1" Add3~13 $end
$var wire 1 2" Add3~14_combout $end
$var wire 1 3" Add4~13 $end
$var wire 1 4" Add4~14_combout $end
$var wire 1 5" Add5~13 $end
$var wire 1 6" Add5~14_combout $end
$var wire 1 7" Add6~13 $end
$var wire 1 8" Add6~14_combout $end
$var wire 1 9" Add7~13 $end
$var wire 1 :" Add7~14_combout $end
$var wire 1 ;" Add0~13 $end
$var wire 1 <" Add0~14_combout $end
$var wire 1 =" Add1~21 $end
$var wire 1 >" Add1~23 $end
$var wire 1 ?" Add1~24_combout $end
$var wire 1 @" Add2~15 $end
$var wire 1 A" Add2~16_combout $end
$var wire 1 B" Add3~15 $end
$var wire 1 C" Add3~16_combout $end
$var wire 1 D" Add4~15 $end
$var wire 1 E" Add4~16_combout $end
$var wire 1 F" Add5~15 $end
$var wire 1 G" Add5~16_combout $end
$var wire 1 H" Add6~15 $end
$var wire 1 I" Add6~16_combout $end
$var wire 1 J" Add7~15 $end
$var wire 1 K" Add7~16_combout $end
$var wire 1 L" Add0~15 $end
$var wire 1 M" Add0~16_combout $end
$var wire 1 N" Add1~22_combout $end
$var wire 1 O" Add2~12_combout $end
$var wire 1 P" Add3~10_combout $end
$var wire 1 Q" Add4~8_combout $end
$var wire 1 R" Add5~6_combout $end
$var wire 1 S" Add6~4_combout $end
$var wire 1 T" Add7~2_combout $end
$var wire 1 U" Add0~0_combout $end
$var wire 1 V" Add1~8_combout $end
$var wire 1 W" Add2~0_combout $end
$var wire 1 X" Add3~0_combout $end
$var wire 1 Y" Add4~0_combout $end
$var wire 1 Z" Add5~0_combout $end
$var wire 1 [" Add6~0_combout $end
$var wire 1 \" Add7~0_combout $end
$var wire 1 ]" aux [7] $end
$var wire 1 ^" aux [6] $end
$var wire 1 _" aux [5] $end
$var wire 1 `" aux [4] $end
$var wire 1 a" aux [3] $end
$var wire 1 b" aux [2] $end
$var wire 1 c" aux [1] $end
$var wire 1 d" aux [0] $end
$upscope $end
$upscope $end
$enddefinitions $end
#0
$dumpvars
b0 !
b0 "
02
01
00
0/
0.
0-
0,
0+
0*
0)
0(
0'
0&
0%
0$
0#
03
14
x5
16
17
18
09
0:
0;
0<
0=
0>
0?
0@
0A
0B
0C
0D
0E
0F
0G
0H
0I
0J
0K
0L
0M
0N
0O
0P
0Q
0R
0S
0T
0U
0V
0W
0X
0Y
0Z
0[
0\
0]
0^
0_
0`
0a
0b
0c
0d
0e
0f
0g
0h
0i
0j
0k
0l
0m
0n
0o
0p
0q
0r
0s
0t
0u
0v
0w
0x
0y
0z
0{
0|
0}
0~
0!!
0"!
0#!
0$!
0%!
0&!
0'!
0(!
0)!
0*!
0+!
0,!
0-!
0.!
0/!
00!
01!
02!
03!
04!
05!
06!
07!
08!
09!
0:!
0;!
0<!
0=!
0>!
0?!
0@!
0A!
1B!
0C!
1D!
0E!
1F!
0G!
1H!
0I!
1J!
0K!
1L!
0M!
1N!
0O!
1P!
0Q!
0R!
0S!
0T!
0U!
0V!
0W!
0X!
0Y!
0Z!
0[!
0\!
0]!
0^!
0_!
1`!
0a!
1b!
0c!
1d!
0e!
1f!
0g!
1h!
0i!
1j!
0k!
1l!
0m!
1n!
0o!
0p!
0q!
0r!
0s!
0t!
0u!
0v!
0w!
0x!
0y!
0z!
0{!
0|!
0}!
1~!
0!"
1""
0#"
1$"
0%"
1&"
0'"
1("
0)"
1*"
0+"
1,"
0-"
1."
0/"
00"
01"
02"
03"
04"
05"
06"
07"
08"
09"
0:"
0;"
0<"
0="
1>"
0?"
1@"
0A"
1B"
0C"
1D"
0E"
1F"
0G"
1H"
0I"
1J"
0K"
1L"
0M"
0N"
0O"
0P"
0Q"
0R"
0S"
0T"
0U"
0V"
0W"
0X"
0Y"
0Z"
0["
0\"
0d"
0c"
0b"
0a"
0`"
0_"
0^"
0]"
$end
#10000
b1 !
b10 "
1R
1*!
11!
1V"
1:
11
#20000
b11 !
b110 "
b10 !
b100 "
0R
1[
0*!
1~
01!
1&!
16!
0V"
0:
01
1X"
1<
1/
#30000
b11 !
b110 "
1R
1*!
11!
1-!
14!
13!
1V"
1W"
1;
1:
15!
11
10
0W"
0;
0H!
06!
00
1I!
0X"
0<
18!
0/
1Y"
1=
1.
#40000
b111 !
b1110 "
b101 !
b1010 "
b100 !
b1000 "
0R
0[
1P
0*!
0~
1I
01!
0-!
04!
0&!
1{
03!
05!
1H!
16!
1K!
0V"
1W"
1;
0:
06!
0I!
1:!
01
10
0W"
1X"
1<
0;
08!
00
1/
0X"
1Z"
1>
0<
0/
1-
0Y"
0=
0.
#50000
b101 !
b1010 "
1R
1*!
11!
1}
1,!
1G!
1V"
1X"
1<
1:
16!
11
1/
17!
0X"
0<
18!
0/
1Y"
1=
1.
#60000
b111 !
b1110 "
b110 !
b1100 "
0R
1[
0*!
1~
01!
0}
1&!
1|
0,!
1%!
0G!
0H!
06!
1I!
07!
0J!
08!
0V"
1X"
1<
0:
1H!
16!
1Y!
0I!
1[!
0K!
01
1/
0X"
0Y"
0=
0<
0Y!
1I!
1Z!
1J!
18!
1\!
0:!
0/
0.
1X"
1<
0Z!
0J!
08!
1M!
1/
1Y"
0Z"
0>
1=
1=!
1.
0-
0Y"
0=
0.
1["
1?
1,
#70000
b111 !
b1110 "
1R
1*!
11!
1-!
1}
14!
1,!
13!
1G!
17!
1V"
1W"
0X"
0<
1;
1:
15!
0H!
06!
18!
11
10
0/
0W"
0;
16!
1Y!
0I!
07!
00
1X"
1Y"
1=
1<
17!
1Z!
1J!
1/
1.
0X"
0<
0J!
08!
0/
1K!
0Y"
0=
1:!
0.
1Z"
1>
1-
#80000
b1111 !
b11110 "
b1011 !
b10110 "
b1001 !
b10010 "
b1000 !
b10000 "
0R
0[
0P
1X
0*!
0~
0I
1M
01!
0-!
0}
04!
0&!
0|
0,!
0%!
0{
1z
03!
0G!
05!
06!
0Y!
1I!
07!
1J!
18!
0K!
1^!
0V"
1W"
1X"
1<
1;
0:
1H!
0Z!
0[!
1K!
0:!
1O!
01
10
1/
0W"
0X"
1Y"
1=
0<
0;
0I!
0K!
0\!
1:!
1@!
00
0/
1.
0Z"
0>
08!
0:!
0M!
0-
1Z"
1\"
1@
1>
0=!
1-
1+
0Y"
0Z"
0>
0=
0.
0-
0["
0?
0,
#90000
b1001 !
b10010 "
1R
1*!
11!
1u
1+!
1X!
1V"
1Y"
1=
1:
1I!
11
1.
18!
19!
0Y"
0=
1:!
0.
1Z"
1>
1-
#100000
b1011 !
b10110 "
b1010 !
b10100 "
0R
1[
0*!
1~
01!
0u
1&!
1s
0+!
1$!
0X!
16!
1Z!
09!
0L!
0:!
0V"
1Y"
1=
0:
0I!
1K!
1L!
1:!
1M!
01
1.
1X"
0Z"
0>
1<
08!
0L!
0:!
0M!
1=!
1/
0-
1Z"
1>
1M!
0=!
1-
0Y"
0Z"
1["
1?
0>
0=
1=!
0.
0-
1,
0["
0?
0,
1["
1?
1,
#110000
b1011 !
b10110 "
1R
1*!
11!
1-!
1u
14!
1+!
13!
1X!
1V"
1W"
1Y"
1=
1;
1:
15!
1I!
11
10
1.
0W"
0;
0H!
06!
18!
00
1Y!
0I!
19!
0X"
0Y"
0=
0<
0j!
0Z!
08!
1:!
0/
0.
1k!
0K!
09!
1Y"
1Z"
1>
1=
1\!
1L!
1.
1-
#120000
b1111 !
b11110 "
b1101 !
b11010 "
b1100 !
b11000 "
0R
0[
1P
0*!
0~
1I
01!
0-!
0u
04!
0&!
0s
1{
1q
0+!
0$!
1#!
03!
0X!
05!
1H!
16!
1j!
1Z!
1K!
0l!
0\!
0:!
1]!
0M!
0V"
1W"
0Y"
0=
1;
0:
0Y!
06!
0k!
1[!
0K!
1:!
1m!
0]!
1M!
0n!
0^!
0=!
01
10
0.
0W"
1X"
0Z"
0>
1<
0;
0Z!
0:!
1=!
1Q"
0O!
00
1/
0-
0X"
1Z"
0["
0?
1>
0<
0[!
1K!
1R"
0@!
0/
1-
0,
0Z"
1["
1?
0>
1l!
1\!
1:!
1S"
0-
1,
0\"
0@
0m!
1]!
0M!
0+
1Z"
1T"
1A
1>
0=!
1-
1*
1U"
19
12
0["
0?
0,
#130000
b1101 !
b11010 "
1R
1*!
11!
1}
1u
1,!
1+!
1G!
1X!
1V"
1X"
1Y"
1=
1<
1:
16!
1I!
11
1/
1.
17!
18!
0X"
0<
0J!
08!
19!
0/
0Y"
0=
1[!
0K!
09!
0L!
0:!
0.
1Y"
1=
0l!
0\!
1L!
1M!
1.
0Z"
0>
1m!
0]!
1=!
0-
1["
1?
1,
#140000
b1111 !
b11110 "
b1110 !
b11100 "
0R
1[
0*!
1~
01!
0}
0u
1&!
1|
1s
0,!
0+!
1%!
1$!
0G!
0X!
0H!
06!
1Y!
0I!
1Z!
07!
18!
1:!
0V"
1X"
0Y"
0=
1<
0:
1H!
16!
0j!
0Z!
1J!
1K!
01
1/
0.
0X"
1Y"
1Z"
1>
1=
0<
0Y!
1I!
1k!
0[!
0L!
0:!
0/
1.
1-
1X"
1<
1j!
1Z!
0J!
08!
1]!
0M!
1/
0Z"
0>
0k!
1[!
1^!
0=!
0-
0Y"
0=
1O!
0.
0["
0?
1@!
0,
1\"
1@
1+
#150000
b1111 !
b11110 "
1R
1*!
11!
1-!
1}
1u
14!
1,!
1+!
13!
1G!
1X!
17!
1V"
1W"
0X"
1Y"
1=
0<
1;
1:
15!
0H!
06!
1Y!
0I!
18!
11
10
0/
1.
0W"
0;
16!
1I!
07!
0j!
0Z!
08!
19!
00
1X"
0Y"
0=
1<
17!
1k!
0K!
09!
1:!
1/
0.
0X"
1Y"
1=
0<
18!
1\!
1L!
0/
1.
1Z"
1>
19!
1-
0Y"
0=
0L!
0:!
0.
1M!
0Z"
0>
1=!
0-
1["
1?
1,
#160000
b11111 !
b111110 "
b10111 !
b101110 "
b10011 !
b100110 "
b10001 !
b100010 "
b10000 !
b100000 "
0R
0[
0P
0X
1L
0*!
0~
0I
0M
1k
01!
0-!
0}
0u
04!
0&!
0|
0s
0,!
0%!
0{
0q
0+!
0$!
0#!
0z
1y
03!
0G!
0X!
05!
06!
0I!
1j!
1Z!
07!
08!
0[!
1K!
0\!
09!
1L!
1:!
0M!
0^!
1a!
0V"
1W"
1X"
1Y"
1=
1<
1;
0:
1H!
0Y!
1I!
1J!
0k!
1[!
0K!
1l!
1\!
0]!
0=!
0O!
1R!
01
10
1/
1.
0W"
0X"
0Y"
1Z"
1>
0=
0<
0;
0I!
0Z!
18!
0[!
1K!
0:!
0m!
1M!
1n!
1^!
0@!
00
0/
0.
1-
0["
1C!
1B
0?
08!
0K!
0\!
1:!
0^!
1=!
0Q"
1O!
10!
0,
1)
1Y"
0Z"
0\"
0@
0>
1=
0:!
0M!
0O!
0R"
1@!
1.
0-
0+
0Y"
1Z"
1["
1V"
1:
1?
1>
0=
0=!
0@!
0S"
0.
1-
1,
11
0Z"
1\"
1@
0>
0-
1+
0["
0\"
0T"
0A
0@
0?
0,
0+
0*
0U"
09
02
#170000
b10001 !
b100010 "
1R
1*!
11!
1t
1;!
12!
1i!
0V"
1Z"
1>
0:
13!
1Z!
01
1-
1K!
1W"
1;
1:!
10
1<!
0Z"
0>
1=!
0-
1["
1?
1,
#180000
b10011 !
b100110 "
b10010 !
b100100 "
0R
1[
0*!
1~
01!
0t
1&!
1r
0;!
1)!
02!
0i!
16!
1k!
0<!
0N!
0=!
1V"
1Z"
1>
1:
03!
0Z!
1\!
1N!
1=!
1O!
11
1-
1X"
0["
0?
1<
0K!
1M!
0O!
1@!
1/
0,
0W"
1["
1?
0;
0:!
0N!
0=!
0@!
00
1,
1\"
1@
1O!
1+
0Z"
0["
0\"
0@
0?
0>
1@!
0-
0,
0+
1\"
1@
1+
#190000
b10011 !
b100110 "
1R
1*!
11!
1-!
1t
1;!
14!
12!
13!
1i!
0V"
1Z"
1W"
1;
1>
0:
0F!
03!
15!
1Z!
01
1-
10
0W"
0;
1G!
05!
0H!
06!
1K!
00
1W"
1;
1I!
1:!
10
0X"
0<
18!
1<!
0/
0Z"
0>
1=!
0-
1Y"
1=
1.
1["
1?
1,
#200000
b10111 !
b101110 "
b10101 !
b101010 "
b10100 !
b101000 "
0R
0[
1P
0*!
0~
1I
01!
0-!
0t
04!
0&!
0r
1{
1p
0;!
0)!
1"!
02!
1F!
13!
0i!
1H!
16!
0k!
1[!
0K!
1m!
0<!
0=!
1_!
0O!
1V"
0W"
1Z"
1>
0;
1:
03!
0G!
0Z!
0I!
0:!
1^!
1N!
1=!
1R"
0@!
11
00
1-
1W"
1X"
0["
0?
1<
1;
06!
0[!
1K!
08!
1S"
10
1/
0,
0W"
0Z"
1["
0\"
0@
1?
0>
0;
0\!
1:!
00
0-
1,
0+
0X"
0Y"
1T"
1A
0=
0<
0M!
0/
0.
1*
1Z"
1U"
19
1>
0=!
1-
12
0["
0?
0,
#210000
b10101 !
b101010 "
1R
1*!
11!
1}
1t
1;!
1,!
12!
1G!
1i!
1<!
0V"
0Z"
1X"
1<
0>
0:
13!
16!
1Z!
1=!
01
0-
1/
17!
1[!
0K!
1W"
0X"
1["
1?
0<
1;
18!
1\!
0:!
10
0/
1,
1M!
0<!
1Y"
1Z"
1>
1=
1.
1-
#220000
b10111 !
b101110 "
b10110 !
b101100 "
0R
1[
0*!
1~
01!
0}
0t
1&!
1|
1r
0;!
0,!
1)!
1%!
02!
0G!
0i!
0H!
06!
1I!
1k!
07!
0N!
0=!
0J!
08!
1V"
0Z"
1X"
1<
0>
1:
03!
1H!
16!
0Z!
1Y!
0I!
0l!
0\!
1O!
1K!
11
0-
1/
0X"
0["
0Y"
0=
0?
0<
0Y!
1I!
0K!
1Z!
1J!
18!
1}!
0m!
0M!
1@!
1:!
0/
0,
0.
0W"
1X"
1<
0;
0Z!
0J!
08!
0:!
1P"
0^!
1N!
1=!
00
1/
1Y"
1\"
1Z"
1>
1@
1=
1Q"
0_!
1.
1+
1-
0Y"
0Z"
1["
1?
0>
0=
0.
0-
1,
#230000
b10111 !
b101110 "
1R
1*!
11!
1-!
1}
1t
1;!
14!
1,!
12!
13!
1G!
1i!
17!
0V"
1Z"
1W"
0X"
0<
1;
1>
0:
0F!
03!
15!
0H!
06!
1Z!
18!
01
1-
10
0/
0W"
0;
1W!
0G!
05!
16!
1Y!
0I!
07!
1K!
00
1W"
1X"
1Y"
1=
1<
1;
1X!
1H!
17!
0j!
0Z!
1J!
1:!
10
1/
1.
0X"
0<
0J!
08!
1{!
0k!
0[!
1<!
0/
0Z"
0>
1[!
0K!
1|!
1l!
0N!
0=!
0-
0Y"
0=
1\!
0:!
1_!
0O!
0.
0["
0?
1M!
0<!
0`!
0R"
0@!
0,
1Z"
1>
1q!
0a!
0S"
1-
0\"
0@
1r!
0R!
0+
0T"
0A
1c!
0*
0C!
0U"
09
0B
00!
0)
02
1T!
1C
02!
1E!
1(
1V"
1:
11
#240000
b11111 !
b111110 "
b11011 !
b110110 "
b11001 !
b110010 "
b11000 !
b110000 "
0R
0[
0P
1X
0*!
0~
0I
1M
01!
0-!
0}
0t
04!
0&!
0|
0r
0,!
0%!
0{
0p
1z
1o
0;!
0)!
0"!
1N
1F!
13!
0W!
1G!
0i!
06!
0Y!
1I!
0{!
1k!
07!
1J!
18!
0[!
1K!
0}!
1m!
1^!
1o!
0Q"
1N!
1=!
0_!
1O!
1R"
0V"
0W"
1X"
0Z"
0>
1<
0;
0:
0G!
0X!
16!
1j!
0|!
0K!
1:!
0P"
0n!
0^!
1p!
1`!
1@!
1S"
01
00
1/
0-
1W"
0X"
1Y"
1["
1?
1=
0<
1;
06!
0I!
0k!
0m!
0:!
0O!
10
0/
1.
1,
1X"
1Z"
1\"
1T"
1A
1@
1>
1<
08!
0\!
1n!
1^!
0@!
1/
1-
1+
1*
0X"
0Z"
1U"
19
0>
0<
0M!
0o!
1Q"
1O!
0/
0-
12
0Y"
0\"
0@
0=
0=!
0p!
0`!
0R"
1@!
0.
0+
0S"
0["
1\"
1@
0?
0,
1+
0T"
0A
0*
0U"
09
02
#250000
b11001 !
b110010 "
1R
1*!
11!
1u
1t
1;!
1+!
1X!
1i!
1V"
1Z"
1Y"
1=
1>
1:
1I!
1Z!
11
1-
1.
18!
1K!
19!
1:!
0Y"
0=
0L!
0:!
1<!
0.
0Z"
0>
1M!
0<!
1=!
0-
1Z"
1>
1-
1["
1?
1,
#260000
b11011 !
b110110 "
b11010 !
b110100 "
0R
1[
0*!
1~
01!
0u
0t
1&!
1s
1r
0;!
0+!
1)!
1$!
0X!
0i!
16!
0j!
0Z!
1k!
09!
0N!
0=!
1:!
0V"
0Z"
1Y"
1=
0>
0:
0I!
1j!
1Z!
1{!
0k!
0K!
1\!
0:!
1_!
0O!
01
0-
1.
1X"
0["
1Z"
1>
0?
1<
08!
0{!
1k!
1K!
1|!
0\!
1L!
1:!
1]!
0M!
1R"
0@!
1/
0,
1-
0Z"
0>
0|!
1\!
0L!
0:!
1m!
0]!
0n!
0^!
1N!
1=!
1S"
0-
0Y"
1Z"
0\"
0@
1>
0=
0m!
1]!
1o!
0Q"
0_!
0.
1-
0+
0Z"
1["
1T"
1A
1?
0>
1p!
1`!
0-
1,
1*
1U"
19
12
#270000
b11011 !
b110110 "
1R
1*!
11!
1-!
1u
1t
1;!
14!
1+!
0F!
03!
1X!
1i!
15!
1V"
1Z"
0W"
1Y"
1=
0;
1>
1:
1G!
05!
1I!
0j!
0Z!
0H!
06!
11
1-
00
1.
1W"
1;
18!
1{!
0k!
0K!
1Y!
0I!
10
0X"
0<
19!
1|!
0\!
1L!
1:!
1Z!
08!
0/
0Y"
0=
0L!
0:!
1m!
0]!
1<!
1K!
09!
0.
0Z"
1Y"
1=
0>
1M!
0<!
0N!
0=!
0-
1.
1Z"
1>
1O!
1-
0["
0?
1@!
0,
1\"
1@
1+
#280000
b11111 !
b111110 "
b11101 !
b111010 "
b11100 !
b111000 "
0R
0[
1P
0*!
0~
1I
01!
0-!
0u
0t
04!
0&!
0s
0r
1{
1q
1p
0;!
0+!
0)!
0$!
1#!
1"!
1F!
13!
0X!
0i!
1H!
16!
0Z!
0{!
1k!
1[!
0K!
1\!
1}!
0m!
1N!
1=!
1L!
1:!
1]!
0M!
1_!
0O!
0V"
0W"
0Z"
0Y"
0=
0>
0;
0:
0G!
0Y!
1j!
1Z!
0[!
1K!
0|!
0l!
0:!
1P"
0_!
1O!
0=!
0`!
0R"
0@!
01
00
0-
0.
1W"
1X"
1["
1Z"
1>
1?
1<
1;
06!
0Z!
0k!
1[!
0K!
0\!
1:!
1Q"
1`!
1R"
1@!
1a!
0S"
10
1/
1,
1-
0Z"
0["
0\"
0@
0?
0>
0[!
1K!
0:!
0]!
1M!
0`!
0R"
0a!
1S"
1R!
0-
0,
0+
0X"
1Z"
1\"
0T"
0A
1@
1>
0<
1l!
1\!
1:!
1n!
1^!
1=!
1a!
0S"
0R!
0/
1-
1+
0*
0Z"
1T"
1C!
0U"
09
1B
1A
0>
0}!
1m!
1]!
0M!
0Q"
1_!
0O!
1R!
10!
0-
1*
1)
02
1Z"
1["
0T"
0C!
1U"
19
0B
0A
1?
1>
0P"
0n!
0=!
0@!
00!
1-
1,
0*
0)
12
1C!
1V"
0U"
09
1:
1B
10!
1)
11
02
0["
0\"
0V"
0:
0@
0?
0,
0+
01
1V"
1:
11
#290000
b11101 !
b111010 "
1R
1*!
11!
1}
1u
1t
1;!
1,!
1+!
12!
1G!
1X!
1i!
1<!
0V"
0Z"
1X"
1Y"
1=
1<
0>
0:
0F!
03!
16!
1I!
1Z!
1=!
01
0-
1/
1.
1W!
0G!
17!
18!
1[!
0K!
0W"
0X"
1["
1?
0<
0;
0h!
0X!
06!
0J!
08!
19!
0l!
0\!
0:!
00
0/
1,
0Y"
0=
1y!
0i!
0I!
07!
1K!
09!
1:!
1}!
0m!
0]!
1M!
0<!
0.
1X"
1Y"
1Z"
1>
1=
1<
1z!
0Z!
1J!
1<!
1P"
1n!
1/
1.
1-
0Z"
0>
1k!
0[!
0N!
0=!
0-
1O!
0["
0?
1@!
0,
1\"
1@
1+
#300000
b11111 !
b111110 "
b11110 !
b111100 "
0R
1[
0*!
1~
01!
0}
0u
0t
1&!
1|
1s
1r
0;!
0,!
0+!
1)!
1%!
1$!
02!
0W!
1G!
1h!
1X!
0y!
1i!
16!
1I!
1Z!
1{!
0k!
0<!
1=!
18!
0L!
0:!
1V"
1Z"
0X"
0Y"
0=
0<
1>
1:
1F!
13!
0X!
0H!
06!
0i!
1Y!
0I!
0z!
0j!
0Z!
0J!
08!
1[!
0K!
1|!
1l!
1\!
0=!
1]!
0M!
11
1-
0/
0.
1X"
1["
1Y"
0Z"
0>
1=
1?
1<
0G!
1J!
18!
0l!
0\!
1L!
1:!
1M!
0n!
0^!
1N!
1=!
1/
1,
1.
0-
1W"
0X"
0Y"
0["
0?
0=
0<
1;
1H!
16!
0[!
1K!
1m!
0]!
0N!
0=!
1Q"
0_!
10
0/
0.
0,
1Y"
1Z"
1["
1?
1>
1=
0Y!
1I!
1l!
1\!
0L!
0:!
1_!
0O!
1.
1-
1,
1X"
0["
0?
1<
1j!
1Z!
0J!
08!
0m!
1]!
1R"
0@!
1/
0,
0Z"
0>
0{!
1k!
1[!
1S"
0-
0Y"
0\"
0@
0=
0|!
0l!
0.
0+
1T"
1A
1*
1U"
19
12
