Practica3/simulation/qsim/multiplicacion.msim.vcd
$comment
	File created using the following command:
		vcd file multiplicacion.msim.vcd -direction
$end
$date
	Fri May 21 16:27:42 2021
$end
$version
	ModelSim Version 2020.1
$end
$timescale
	1ps
$end

$scope module multiplicacion_vlg_vec_tst $end
$var reg 4 ! a [3:0] $end
$var reg 4 " b [3:0] $end
$var wire 1 # P [7] $end
$var wire 1 $ P [6] $end
$var wire 1 % P [5] $end
$var wire 1 & P [4] $end
$var wire 1 ' P [3] $end
$var wire 1 ( P [2] $end
$var wire 1 ) P [1] $end
$var wire 1 * P [0] $end

$scope module i1 $end
$var wire 1 + gnd $end
$var wire 1 , vcc $end
$var wire 1 - unknown $end
$var tri1 1 . devclrn $end
$var tri1 1 / devpor $end
$var tri1 1 0 devoe $end
$var wire 1 1 P[0]~output_o $end
$var wire 1 2 P[1]~output_o $end
$var wire 1 3 P[2]~output_o $end
$var wire 1 4 P[3]~output_o $end
$var wire 1 5 P[4]~output_o $end
$var wire 1 6 P[5]~output_o $end
$var wire 1 7 P[6]~output_o $end
$var wire 1 8 P[7]~output_o $end
$var wire 1 9 a[0]~input_o $end
$var wire 1 : b[0]~input_o $end
$var wire 1 ; P~0_combout $end
$var wire 1 < a[1]~input_o $end
$var wire 1 = b[1]~input_o $end
$var wire 1 > p0|Add0~0_combout $end
$var wire 1 ? b[2]~input_o $end
$var wire 1 @ p0|Add0~1_combout $end
$var wire 1 A a[2]~input_o $end
$var wire 1 B a1~combout $end
$var wire 1 C p1|Add1~0_combout $end
$var wire 1 D p2|Add0~0_combout $end
$var wire 1 E b[3]~input_o $end
$var wire 1 F a[3]~input_o $end
$var wire 1 G a3~combout $end
$var wire 1 H p1|Add1~1_combout $end
$var wire 1 I p3|Add1~0_combout $end
$var wire 1 J p2|Add0~1_combout $end
$var wire 1 K p4|Add1~0_combout $end
$var wire 1 L p5|Add0~0_combout $end
$var wire 1 M p3|Add1~1_combout $end
$var wire 1 N p6|Add1~0_combout $end
$var wire 1 O p4|Add1~1_combout $end
$var wire 1 P p7|Add1~0_combout $end
$var wire 1 Q p5|Add0~1_combout $end
$var wire 1 R p8|Add1~0_combout $end
$var wire 1 S p8|Add1~1_combout $end
$var wire 1 T p7|Add1~1_combout $end
$var wire 1 U p9|Add0~0_combout $end
$var wire 1 V p9|Add1~0_combout $end
$var wire 1 W p10|Add1~0_combout $end
$var wire 1 X p10|Add1~1_combout $end
$var wire 1 Y p9|Add1~1_combout $end
$var wire 1 Z p11|Add1~0_combout $end
$var wire 1 [ p11|Add1~1_combout $end
$upscope $end
$upscope $end
$enddefinitions $end
#0
$dumpvars
b10 !
b100 "
0*
0)
0(
1'
0&
0%
0$
0#
0+
1,
x-
1.
1/
10
01
02
03
14
05
06
07
08
09
0:
0;
1<
0=
0>
1?
0@
0A
0B
0C
0D
0E
0F
0G
0H
0I
0J
1K
1L
0M
0N
0O
0P
0Q
0R
0S
0T
0U
0V
0W
0X
0Y
0Z
0[
$end
#10000
b11 !
b101 "
1:
19
1>
1;
1D
13
11
12
1)
1*
1(
#20000
b111 !
b101 !
b111 "
b100 !
b110 "
0:
1=
09
0<
1A
1I
0K
1P
0>
0;
0D
03
01
02
1K
0)
0*
0(
0L
1R
15
04
0'
1&
1L
14
1'
#30000
b101 !
b111 "
1:
19
1B
1>
1;
1D
13
11
12
1C
1)
1*
1(
1J
0D
03
1O
0K
0(
1T
0P
0L
04
1V
0'
0R
05
0&
1W
16
1%
#40000
b1111 "
b1011 "
b111 !
b1001 "
b110 !
b1000 "
09
1<
0:
0=
0?
1E
0J
0B
0I
0T
1P
1X
1D
0>
0;
1R
0W
06
15
01
02
13
0O
0C
0V
1S
1(
0)
0*
1&
0%
0R
1Z
17
05
0P
0&
1$
0D
03
0S
0(
1R
15
0X
1&
1W
16
1%
0Z
07
0$
#50000
b111 !
b1001 "
1:
19
1B
1>
1;
1L
14
11
12
1C
1)
1*
1'
1D
13
1(
#60000
b1111 !
b1011 !
b1001 !
b1011 "
b1000 !
b1010 "
0:
1=
09
0<
0A
1F
0B
1N
0>
0;
0L
0R
0W
1Z
17
06
05
04
01
02
0C
1P
0)
0*
0'
0&
0%
1$
0D
1R
15
03
0(
1&
#70000
b1001 !
b1011 "
1:
19
1G
1>
1;
1L
14
11
12
1I
1)
1*
1'
1K
1Q
0L
04
1S
0'
0R
05
0&
1W
16
1%
#80000
b1111 "
b1011 !
b1101 "
b1010 !
b1100 "
09
1<
0:
0=
1?
0Q
1O
0K
0G
0N
1V
1L
0>
0;
1R
15
01
02
14
0I
1X
1'
0)
0*
1&
0R
0L
0W
06
04
05
0O
1K
0&
0'
0%
1[
0Z
07
18
0P
1#
0$
1L
14
0S
1'
1R
15
0X
1&
1W
16
1%
0[
1Z
17
08
0#
1$
#90000
b1011 !
b1101 "
1:
19
1G
1Q
1>
1;
0L
1D
13
04
11
12
1I
1S
1)
1*
0'
1(
0R
05
1O
0K
1X
0&
0W
06
1P
0Q
0%
1L
1[
0Z
07
18
14
1'
1#
0$
#100000
b1111 !
b1101 !
b1111 "
b1100 !
b1110 "
0:
1=
09
0<
1A
0G
1N
1M
0I
0S
0O
1K
1T
0P
0>
0;
0L
0D
1R
1W
16
15
03
04
01
02
0M
1I
1U
0N
0K
1Y
0V
0)
0*
0'
0(
1&
1%
0W
1L
0R
05
14
06
0U
1N
1K
1V
0T
1P
0X
0%
1'
0&
0L
1Z
1W
16
17
04
0Y
1T
0P
1X
0'
1$
1%
1L
0W
1R
0Z
07
15
06
14
1Y
0V
1'
0%
1&
0$
0R
05
0X
0&
1Z
1W
16
17
1$
1%
0Z
07
0$
#110000
b1101 !
b1111 "
1:
19
1G
1B
1Q
1>
1;
0L
1D
13
04
11
12
1M
0I
1C
1)
1*
0'
1(
1R
15
1U
0N
0K
1J
1&
0D
03
1V
0T
1P
0Q
1K
0(
1L
14
1X
0V
1Q
1'
0W
0L
04
06
0X
1S
0%
0'
1Z
1W
0R
05
16
17
1X
1$
1%
0&
0Z
0W
06
07
0$
0%
1Z
17
1$
#120000
b111 "
b11 "
b1111 !
b1 "
b1110 !
b0 "
09
1<
0:
0=
0?
0E
0Q
0J
0G
0B
0U
1N
0M
1I
0Y
1V
0P
0X
1L
1D
0>
0;
0Z
1W
16
07
01
02
13
14
0S
0I
0C
0V
1P
0N
1X
1'
1(
0)
0*
0$
1%
0[
0W
06
08
0X
0K
0P
0#
0%
0D
1R
1Z
17
15
03
0(
1&
1$
0Z
0L
0R
05
04
07
0$
0'
0&
#130000
b1111 !
b1 "
1:
19
1G
1B
1>
1;
11
12
1I
1C
1)
1*
1K
1D
13
1(
1L
14
1'
#140000
b111 !
b11 !
b1 !
b11 "
b0 !
b10 "
0:
1=
09
0<
0A
0F
0G
0B
0>
0;
01
02
0I
0C
0)
0*
0K
0D
03
0(
0L
04
0'
#150000
b1 !
b11 "
1:
19
1>
1;
11
12
1)
1*
#160000
b111 "
b11 !
b101 "
b10 !
b100 "
09
1<
0:
0=
1?
1K
0>
0;
01
02
0)
0*
1L
14
1'
#170000
b11 !
b101 "
1:
19
1>
1;
1D
13
11
12
1)
1*
1(
#180000
b111 !
b101 !
b111 "
b100 !
b110 "
0:
1=
09
0<
1A
1I
0K
1P
0>
0;
0D
03
01
02
1K
0)
0*
0(
0L
1R
15
04
0'
1&
1L
14
1'
#190000
b101 !
b111 "
1:
19
1B
1>
1;
1D
13
11
12
1C
1)
1*
1(
1J
0D
03
1O
0K
0(
1T
0P
0L
04
1V
0'
0R
05
0&
1W
16
1%
#200000
b1111 "
b1011 "
b111 !
b1001 "
b110 !
b1000 "
09
1<
0:
0=
0?
1E
0J
0B
0I
0T
1P
1X
1D
0>
0;
1R
0W
06
15
01
02
13
0O
0C
0V
1S
1(
0)
0*
1&
0%
0R
1Z
17
05
0P
0&
1$
0D
03
0S
0(
1R
15
0X
1&
1W
16
1%
0Z
07
0$
#210000
b111 !
b1001 "
1:
19
1B
1>
1;
1L
14
11
12
1C
1)
1*
1'
1D
13
1(
#220000
b1111 !
b1011 !
b1001 !
b1011 "
b1000 !
b1010 "
0:
1=
09
0<
0A
1F
0B
1N
0>
0;
0L
0R
0W
1Z
17
06
05
04
01
02
0C
1P
0)
0*
0'
0&
0%
1$
0D
1R
15
03
0(
1&
#230000
b1001 !
b1011 "
1:
19
1G
1>
1;
1L
14
11
12
1I
1)
1*
1'
1K
1Q
0L
04
1S
0'
0R
05
0&
1W
16
1%
#240000
b1111 "
b1011 !
b1101 "
b1010 !
b1100 "
09
1<
0:
0=
1?
0Q
1O
0K
0G
0N
1V
1L
0>
0;
1R
15
01
02
14
0I
1X
1'
0)
0*
1&
0R
0L
0W
06
04
05
0O
1K
0&
0'
0%
1[
0Z
07
18
0P
1#
0$
1L
14
0S
1'
1R
15
0X
1&
1W
16
1%
0[
1Z
17
08
0#
1$
#250000
b1011 !
b1101 "
1:
19
1G
1Q
1>
1;
0L
1D
13
04
11
12
1I
1S
1)
1*
0'
1(
0R
05
1O
0K
1X
0&
0W
06
1P
0Q
0%
1L
1[
0Z
07
18
14
1'
1#
0$
#260000
b1111 !
b1101 !
b1111 "
b1100 !
b1110 "
0:
1=
09
0<
1A
0G
1N
1M
0I
0S
0O
1K
1T
0P
0>
0;
0L
0D
1R
1W
16
15
03
04
01
02
0M
1I
1U
0N
0K
1Y
0V
0)
0*
0'
0(
1&
1%
0W
1L
0R
05
14
06
0U
1N
1K
1V
0T
1P
0X
0%
1'
0&
0L
1Z
1W
16
17
04
0Y
1T
0P
1X
0'
1$
1%
1L
0W
1R
0Z
07
15
06
14
1Y
0V
1'
0%
1&
0$
0R
05
0X
0&
1Z
1W
16
17
1$
1%
0Z
07
0$
#270000
b1101 !
b1111 "
1:
19
1G
1B
1Q
1>
1;
0L
1D
13
04
11
12
1M
0I
1C
1)
1*
0'
1(
1R
15
1U
0N
0K
1J
1&
0D
03
1V
0T
1P
0Q
1K
0(
1L
14
1X
0V
1Q
1'
0W
0L
04
06
0X
1S
0%
0'
1Z
1W
0R
05
16
17
1X
1$
1%
0&
0Z
0W
06
07
0$
0%
1Z
17
1$
#280000
b111 "
b11 "
b1111 !
b1 "
b1110 !
b0 "
09
1<
0:
0=
0?
0E
0Q
0J
0G
0B
0U
1N
0M
1I
0Y
1V
0P
0X
1L
1D
0>
0;
0Z
1W
16
07
01
02
13
14
0S
0I
0C
0V
1P
0N
1X
1'
1(
0)
0*
0$
1%
0[
0W
06
08
0X
0K
0P
0#
0%
0D
1R
1Z
17
15
03
0(
1&
1$
0Z
0L
0R
05
04
07
0$
0'
0&
#290000
b1111 !
b1 "
1:
19
1G
1B
1>
1;
11
12
1I
1C
1)
1*
1K
1D
13
1(
1L
14
1'
#300000
b111 !
b11 !
b1 !
b11 "
b0 !
b10 "
0:
1=
09
0<
0A
0F
0G
0B
0>
0;
01
02
0I
0C
0)
0*
0K
0D
03
0(
0L
04
0'
#310000
b1 !
b11 "
1:
19
1>
1;
11
12
1)
1*
#320000
b111 "
b11 !
b101 "
b10 !
b100 "
09
1<
0:
0=
1?
1K
0>
0;
01
02
0)
0*
1L
14
1'
#330000
b11 !
b101 "
1:
19
1>
1;
1D
13
11
12
1)
1*
1(
#340000
b111 !
b101 !
b111 "
b100 !
b110 "
0:
1=
09
0<
1A
1I
0K
1P
0>
0;
0D
03
01
02
1K
0)
0*
0(
0L
1R
15
04
0'
1&
1L
14
1'
#350000
b101 !
b111 "
1:
19
1B
1>
1;
1D
13
11
12
1C
1)
1*
1(
1J
0D
03
1O
0K
0(
1T
0P
0L
04
1V
0'
0R
05
0&
1W
16
1%
#360000
b1111 "
b1011 "
b111 !
b1001 "
b110 !
b1000 "
09
1<
0:
0=
0?
1E
0J
0B
0I
0T
1P
1X
1D
0>
0;
1R
0W
06
15
01
02
13
0O
0C
0V
1S
1(
0)
0*
1&
0%
0R
1Z
17
05
0P
0&
1$
0D
03
0S
0(
1R
15
0X
1&
1W
16
1%
0Z
07
0$
#370000
b111 !
b1001 "
1:
19
1B
1>
1;
1L
14
11
12
1C
1)
1*
1'
1D
13
1(
#380000
b1111 !
b1011 !
b1001 !
b1011 "
b1000 !
b1010 "
0:
1=
09
0<
0A
1F
0B
1N
0>
0;
0L
0R
0W
1Z
17
06
05
04
01
02
0C
1P
0)
0*
0'
0&
0%
1$
0D
1R
15
03
0(
1&
#390000
b1001 !
b1011 "
1:
19
1G
1>
1;
1L
14
11
12
1I
1)
1*
1'
1K
1Q
0L
04
1S
0'
0R
05
0&
1W
16
1%
#400000
b1111 "
b1011 !
b1101 "
b1010 !
b1100 "
09
1<
0:
0=
1?
0Q
1O
0K
0G
0N
1V
1L
0>
0;
1R
15
01
02
14
0I
1X
1'
0)
0*
1&
0R
0L
0W
06
04
05
0O
1K
0&
0'
0%
1[
0Z
07
18
0P
1#
0$
1L
14
0S
1'
1R
15
0X
1&
1W
16
1%
0[
1Z
17
08
0#
1$
#410000
b1011 !
b1101 "
1:
19
1G
1Q
1>
1;
0L
1D
13
04
11
12
1I
1S
1)
1*
0'
1(
0R
05
1O
0K
1X
0&
0W
06
1P
0Q
0%
1L
1[
0Z
07
18
14
1'
1#
0$
#420000
b1111 !
b1101 !
b1111 "
b1100 !
b1110 "
0:
1=
09
0<
1A
0G
1N
1M
0I
0S
0O
1K
1T
0P
0>
0;
0L
0D
1R
1W
16
15
03
04
01
02
0M
1I
1U
0N
0K
1Y
0V
0)
0*
0'
0(
1&
1%
0W
1L
0R
05
14
06
0U
1N
1K
1V
0T
1P
0X
0%
1'
0&
0L
1Z
1W
16
17
04
0Y
1T
0P
1X
0'
1$
1%
1L
0W
1R
0Z
07
15
06
14
1Y
0V
1'
0%
1&
0$
0R
05
0X
0&
1Z
1W
16
17
1$
1%
0Z
07
0$
#430000
b1101 !
b1111 "
1:
19
1G
1B
1Q
1>
1;
0L
1D
13
04
11
12
1M
0I
1C
1)
1*
0'
1(
1R
15
1U
0N
0K
1J
1&
0D
03
1V
0T
1P
0Q
1K
0(
1L
14
1X
0V
1Q
1'
0W
0L
04
06
0X
1S
0%
0'
1Z
1W
0R
05
16
17
1X
1$
1%
0&
0Z
0W
06
07
0$
0%
1Z
17
1$
#440000
b111 "
b11 "
b1111 !
b1 "
b1110 !
b0 "
09
1<
0:
0=
0?
0E
0Q
0J
0G
0B
0U
1N
0M
1I
0Y
1V
0P
0X
1L
1D
0>
0;
0Z
1W
16
07
01
02
13
14
0S
0I
0C
0V
1P
0N
1X
1'
1(
0)
0*
0$
1%
0[
0W
06
08
0X
0K
0P
0#
0%
0D
1R
1Z
17
15
03
0(
1&
1$
0Z
0L
0R
05
04
07
0$
0'
0&
#450000
b1111 !
b1 "
1:
19
1G
1B
1>
1;
11
12
1I
1C
1)
1*
1K
1D
13
1(
1L
14
1'
#460000
b111 !
b11 !
b1 !
b11 "
b0 !
b10 "
0:
1=
09
0<
0A
0F
0G
0B
0>
0;
01
02
0I
0C
0)
0*
0K
0D
03
0(
0L
04
0'
#470000
b1 !
b11 "
1:
19
1>
1;
11
12
1)
1*
#480000
b111 "
b11 !
b101 "
b10 !
b100 "
09
1<
0:
0=
1?
1K
0>
0;
01
02
0)
0*
1L
14
1'
#490000
b11 !
b101 "
1:
19
1>
1;
1D
13
11
12
1)
1*
1(
#500000
b111 !
b101 !
b111 "
b100 !
b110 "
0:
1=
09
0<
1A
1I
0K
1P
0>
0;
0D
03
01
02
1K
0)
0*
0(
0L
1R
15
04
0'
1&
1L
14
1'
#510000
b101 !
b111 "
1:
19
1B
1>
1;
1D
13
11
12
1C
1)
1*
1(
1J
0D
03
1O
0K
0(
1T
0P
0L
04
1V
0'
0R
05
0&
1W
16
1%
#520000
b1111 "
b1011 "
b111 !
b1001 "
b110 !
b1000 "
09
1<
0:
0=
0?
1E
0J
0B
0I
0T
1P
1X
1D
0>
0;
1R
0W
06
15
01
02
13
0O
0C
0V
1S
1(
0)
0*
1&
0%
0R
1Z
17
05
0P
0&
1$
0D
03
0S
0(
1R
15
0X
1&
1W
16
1%
0Z
07
0$
#530000
b111 !
b1001 "
1:
19
1B
1>
1;
1L
14
11
12
1C
1)
1*
1'
1D
13
1(
#540000
b1111 !
b1011 !
b1001 !
b1011 "
b1000 !
b1010 "
0:
1=
09
0<
0A
1F
0B
1N
0>
0;
0L
0R
0W
1Z
17
06
05
04
01
02
0C
1P
0)
0*
0'
0&
0%
1$
0D
1R
15
03
0(
1&
#550000
b1001 !
b1011 "
1:
19
1G
1>
1;
1L
14
11
12
1I
1)
1*
1'
1K
1Q
0L
04
1S
0'
0R
05
0&
1W
16
1%
#560000
b1111 "
b1011 !
b1101 "
b1010 !
b1100 "
09
1<
0:
0=
1?
0Q
1O
0K
0G
0N
1V
1L
0>
0;
1R
15
01
02
14
0I
1X
1'
0)
0*
1&
0R
0L
0W
06
04
05
0O
1K
0&
0'
0%
1[
0Z
07
18
0P
1#
0$
1L
14
0S
1'
1R
15
0X
1&
1W
16
1%
0[
1Z
17
08
0#
1$
#570000
b1011 !
b1101 "
1:
19
1G
1Q
1>
1;
0L
1D
13
04
11
12
1I
1S
1)
1*
0'
1(
0R
05
1O
0K
1X
0&
0W
06
1P
0Q
0%
1L
1[
0Z
07
18
14
1'
1#
0$
#580000
b1111 !
b1101 !
b1111 "
b1100 !
b1110 "
0:
1=
09
0<
1A
0G
1N
1M
0I
0S
0O
1K
1T
0P
0>
0;
0L
0D
1R
1W
16
15
03
04
01
02
0M
1I
1U
0N
0K
1Y
0V
0)
0*
0'
0(
1&
1%
0W
1L
0R
05
14
06
0U
1N
1K
1V
0T
1P
0X
0%
1'
0&
0L
1Z
1W
16
17
04
0Y
1T
0P
1X
0'
1$
1%
1L
0W
1R
0Z
07
15
06
14
1Y
0V
1'
0%
1&
0$
0R
05
0X
0&
1Z
1W
16
17
1$
1%
0Z
07
0$
#590000
b1101 !
b1111 "
1:
19
1G
1B
1Q
1>
1;
0L
1D
13
04
11
12
1M
0I
1C
1)
1*
0'
1(
1R
15
1U
0N
0K
1J
1&
0D
03
1V
0T
1P
0Q
1K
0(
1L
14
1X
0V
1Q
1'
0W
0L
04
06
0X
1S
0%
0'
1Z
1W
0R
05
16
17
1X
1$
1%
0&
0Z
0W
06
07
0$
0%
1Z
17
1$
#600000
b111 "
b11 "
b1111 !
b1 "
b1110 !
b0 "
09
1<
0:
0=
0?
0E
0Q
0J
0G
0B
0U
1N
0M
1I
0Y
1V
0P
0X
1L
1D
0>
0;
0Z
1W
16
07
01
02
13
14
0S
0I
0C
0V
1P
0N
1X
1'
1(
0)
0*
0$
1%
0[
0W
06
08
0X
0K
0P
0#
0%
0D
1R
1Z
17
15
03
0(
1&
1$
0Z
0L
0R
05
04
07
0$
0'
0&
#610000
b1111 !
b1 "
1:
19
1G
1B
1>
1;
11
12
1I
1C
1)
1*
1K
1D
13
1(
1L
14
1'
#620000
b111 !
b11 !
b1 !
b11 "
b0 !
b10 "
0:
1=
09
0<
0A
0F
0G
0B
0>
0;
01
02
0I
0C
0)
0*
0K
0D
03
0(
0L
04
0'
#630000
b1 !
b11 "
1:
19
1>
1;
11
12
1)
1*
#640000
b111 "
b11 !
b101 "
b10 !
b100 "
09
1<
0:
0=
1?
1K
0>
0;
01
02
0)
0*
1L
14
1'
#650000
b11 !
b101 "
1:
19
1>
1;
1D
13
11
12
1)
1*
1(
#660000
b111 !
b101 !
b111 "
b100 !
b110 "
0:
1=
09
0<
1A
1I
0K
1P
0>
0;
0D
03
01
02
1K
0)
0*
0(
0L
1R
15
04
0'
1&
1L
14
1'
#670000
b101 !
b111 "
1:
19
1B
1>
1;
1D
13
11
12
1C
1)
1*
1(
1J
0D
03
1O
0K
0(
1T
0P
0L
04
1V
0'
0R
05
0&
1W
16
1%
#680000
b1111 "
b1011 "
b111 !
b1001 "
b110 !
b1000 "
09
1<
0:
0=
0?
1E
0J
0B
0I
0T
1P
1X
1D
0>
0;
1R
0W
06
15
01
02
13
0O
0C
0V
1S
1(
0)
0*
1&
0%
0R
1Z
17
05
0P
0&
1$
0D
03
0S
0(
1R
15
0X
1&
1W
16
1%
0Z
07
0$
#690000
b111 !
b1001 "
1:
19
1B
1>
1;
1L
14
11
12
1C
1)
1*
1'
1D
13
1(
#700000
b1111 !
b1011 !
b1001 !
b1011 "
b1000 !
b1010 "
0:
1=
09
0<
0A
1F
0B
1N
0>
0;
0L
0R
0W
1Z
17
06
05
04
01
02
0C
1P
0)
0*
0'
0&
0%
1$
0D
1R
15
03
0(
1&
#710000
b1001 !
b1011 "
1:
19
1G
1>
1;
1L
14
11
12
1I
1)
1*
1'
1K
1Q
0L
04
1S
0'
0R
05
0&
1W
16
1%
#720000
b1111 "
b1011 !
b1101 "
b1010 !
b1100 "
09
1<
0:
0=
1?
0Q
1O
0K
0G
0N
1V
1L
0>
0;
1R
15
01
02
14
0I
1X
1'
0)
0*
1&
0R
0L
0W
06
04
05
0O
1K
0&
0'
0%
1[
0Z
07
18
0P
1#
0$
1L
14
0S
1'
1R
15
0X
1&
1W
16
1%
0[
1Z
17
08
0#
1$
#730000
b1011 !
b1101 "
1:
19
1G
1Q
1>
1;
0L
1D
13
04
11
12
1I
1S
1)
1*
0'
1(
0R
05
1O
0K
1X
0&
0W
06
1P
0Q
0%
1L
1[
0Z
07
18
14
1'
1#
0$
#740000
b1111 !
b1101 !
b1111 "
b1100 !
b1110 "
0:
1=
09
0<
1A
0G
1N
1M
0I
0S
0O
1K
1T
0P
0>
0;
0L
0D
1R
1W
16
15
03
04
01
02
0M
1I
1U
0N
0K
1Y
0V
0)
0*
0'
0(
1&
1%
0W
1L
0R
05
14
06
0U
1N
1K
1V
0T
1P
0X
0%
1'
0&
0L
1Z
1W
16
17
04
0Y
1T
0P
1X
0'
1$
1%
1L
0W
1R
0Z
07
15
06
14
1Y
0V
1'
0%
1&
0$
0R
05
0X
0&
1Z
1W
16
17
1$
1%
0Z
07
0$
#750000
b1101 !
b1111 "
1:
19
1G
1B
1Q
1>
1;
0L
1D
13
04
11
12
1M
0I
1C
1)
1*
0'
1(
1R
15
1U
0N
0K
1J
1&
0D
03
1V
0T
1P
0Q
1K
0(
1L
14
1X
0V
1Q
1'
0W
0L
04
06
0X
1S
0%
0'
1Z
1W
0R
05
16
17
1X
1$
1%
0&
0Z
0W
06
07
0$
0%
1Z
17
1$
#760000
b111 "
b11 "
b1111 !
b1 "
b1110 !
b0 "
09
1<
0:
0=
0?
0E
0Q
0J
0G
0B
0U
1N
0M
1I
0Y
1V
0P
0X
1L
1D
0>
0;
0Z
1W
16
07
01
02
13
14
0S
0I
0C
0V
1P
0N
1X
1'
1(
0)
0*
0$
1%
0[
0W
06
08
0X
0K
0P
0#
0%
0D
1R
1Z
17
15
03
0(
1&
1$
0Z
0L
0R
05
04
07
0$
0'
0&
#770000
b1111 !
b1 "
1:
19
1G
1B
1>
1;
11
12
1I
1C
1)
1*
1K
1D
13
1(
1L
14
1'
#780000
b111 !
b11 !
b1 !
b11 "
b0 !
b10 "
0:
1=
09
0<
0A
0F
0G
0B
0>
0;
01
02
0I
0C
0)
0*
0K
0D
03
0(
0L
04
0'
#790000
b1 !
b11 "
1:
19
1>
1;
11
12
1)
1*
#800000
b111 "
b11 !
b101 "
b10 !
b100 "
09
1<
0:
0=
1?
1K
0>
0;
01
02
0)
0*
1L
14
1'
#810000
b11 !
b101 "
1:
19
1>
1;
1D
13
11
12
1)
1*
1(
#820000
b111 !
b101 !
b111 "
b100 !
b110 "
0:
1=
09
0<
1A
1I
0K
1P
0>
0;
0D
03
01
02
1K
0)
0*
0(
0L
1R
15
04
0'
1&
1L
14
1'
#830000
b101 !
b111 "
1:
19
1B
1>
1;
1D
13
11
12
1C
1)
1*
1(
1J
0D
03
1O
0K
0(
1T
0P
0L
04
1V
0'
0R
05
0&
1W
16
1%
#840000
b1111 "
b1011 "
b111 !
b1001 "
b110 !
b1000 "
09
1<
0:
0=
0?
1E
0J
0B
0I
0T
1P
1X
1D
0>
0;
1R
0W
06
15
01
02
13
0O
0C
0V
1S
1(
0)
0*
1&
0%
0R
1Z
17
05
0P
0&
1$
0D
03
0S
0(
1R
15
0X
1&
1W
16
1%
0Z
07
0$
#850000
b111 !
b1001 "
1:
19
1B
1>
1;
1L
14
11
12
1C
1)
1*
1'
1D
13
1(
#860000
b1111 !
b1011 !
b1001 !
b1011 "
b1000 !
b1010 "
0:
1=
09
0<
0A
1F
0B
1N
0>
0;
0L
0R
0W
1Z
17
06
05
04
01
02
0C
1P
0)
0*
0'
0&
0%
1$
0D
1R
15
03
0(
1&
#870000
b1001 !
b1011 "
1:
19
1G
1>
1;
1L
14
11
12
1I
1)
1*
1'
1K
1Q
0L
04
1S
0'
0R
05
0&
1W
16
1%
#880000
b1111 "
b1011 !
b1101 "
b1010 !
b1100 "
09
1<
0:
0=
1?
0Q
1O
0K
0G
0N
1V
1L
0>
0;
1R
15
01
02
14
0I
1X
1'
0)
0*
1&
0R
0L
0W
06
04
05
0O
1K
0&
0'
0%
1[
0Z
07
18
0P
1#
0$
1L
14
0S
1'
1R
15
0X
1&
1W
16
1%
0[
1Z
17
08
0#
1$
#890000
b1011 !
b1101 "
1:
19
1G
1Q
1>
1;
0L
1D
13
04
11
12
1I
1S
1)
1*
0'
1(
0R
05
1O
0K
1X
0&
0W
06
1P
0Q
0%
1L
1[
0Z
07
18
14
1'
1#
0$
#900000
b1111 !
b1101 !
b1111 "
b1100 !
b1110 "
0:
1=
09
0<
1A
0G
1N
1M
0I
0S
0O
1K
1T
0P
0>
0;
0L
0D
1R
1W
16
15
03
04
01
02
0M
1I
1U
0N
0K
1Y
0V
0)
0*
0'
0(
1&
1%
0W
1L
0R
05
14
06
0U
1N
1K
1V
0T
1P
0X
0%
1'
0&
0L
1Z
1W
16
17
04
0Y
1T
0P
1X
0'
1$
1%
1L
0W
1R
0Z
07
15
06
14
1Y
0V
1'
0%
1&
0$
0R
05
0X
0&
1Z
1W
16
17
1$
1%
0Z
07
0$
#910000
b1101 !
b1111 "
1:
19
1G
1B
1Q
1>
1;
0L
1D
13
04
11
12
1M
0I
1C
1)
1*
0'
1(
1R
15
1U
0N
0K
1J
1&
0D
03
1V
0T
1P
0Q
1K
0(
1L
14
1X
0V
1Q
1'
0W
0L
04
06
0X
1S
0%
0'
1Z
1W
0R
05
16
17
1X
1$
1%
0&
0Z
0W
06
07
0$
0%
1Z
17
1$
#920000
b111 "
b11 "
b1111 !
b1 "
b1110 !
b0 "
09
1<
0:
0=
0?
0E
0Q
0J
0G
0B
0U
1N
0M
1I
0Y
1V
0P
0X
1L
1D
0>
0;
0Z
1W
16
07
01
02
13
14
0S
0I
0C
0V
1P
0N
1X
1'
1(
0)
0*
0$
1%
0[
0W
06
08
0X
0K
0P
0#
0%
0D
1R
1Z
17
15
03
0(
1&
1$
0Z
0L
0R
05
04
07
0$
0'
0&
#930000
b1111 !
b1 "
1:
19
1G
1B
1>
1;
11
12
1I
1C
1)
1*
1K
1D
13
1(
1L
14
1'
#940000
b111 !
b11 !
b1 !
b11 "
b0 !
b10 "
0:
1=
09
0<
0A
0F
0G
0B
0>
0;
01
02
0I
0C
0)
0*
0K
0D
03
0(
0L
04
0'
#950000
b1 !
b11 "
1:
19
1>
1;
11
12
1)
1*
#960000
b111 "
b11 !
b101 "
b10 !
b100 "
09
1<
0:
0=
1?
1K
0>
0;
01
02
0)
0*
1L
14
1'
#970000
b11 !
b101 "
1:
19
1>
1;
1D
13
11
12
1)
1*
1(
#980000
b111 !
b101 !
b111 "
b100 !
b110 "
0:
1=
09
0<
1A
1I
0K
1P
0>
0;
0D
03
01
02
1K
0)
0*
0(
0L
1R
15
04
0'
1&
1L
14
1'
#990000
b101 !
b111 "
1:
19
1B
1>
1;
1D
13
11
12
1C
1)
1*
1(
1J
0D
03
1O
0K
0(
1T
0P
0L
04
1V
0'
0R
05
0&
1W
16
1%
