parcial/simulation/qsim/parcial.msim.vcd
$comment
	File created using the following command:
		vcd file parcial.msim.vcd -direction
$end
$date
	Mon Jun 21 14:25:34 2021
$end
$version
	ModelSim Version 2020.1
$end
$timescale
	1ps
$end

$scope module parcial_vlg_vec_tst $end
$var reg 16 ! DIN [15:0] $end
$var reg 1 " Resetn $end
$var reg 1 # Run $end
$var reg 1 $ lock $end
$var wire 1 % BusWires [15] $end
$var wire 1 & BusWires [14] $end
$var wire 1 ' BusWires [13] $end
$var wire 1 ( BusWires [12] $end
$var wire 1 ) BusWires [11] $end
$var wire 1 * BusWires [10] $end
$var wire 1 + BusWires [9] $end
$var wire 1 , BusWires [8] $end
$var wire 1 - BusWires [7] $end
$var wire 1 . BusWires [6] $end
$var wire 1 / BusWires [5] $end
$var wire 1 0 BusWires [4] $end
$var wire 1 1 BusWires [3] $end
$var wire 1 2 BusWires [2] $end
$var wire 1 3 BusWires [1] $end
$var wire 1 4 BusWires [0] $end
$var wire 1 5 Done $end

$scope module i1 $end
$var wire 1 6 gnd $end
$var wire 1 7 vcc $end
$var wire 1 8 unknown $end
$var tri1 1 9 devclrn $end
$var tri1 1 : devpor $end
$var tri1 1 ; devoe $end
$var wire 1 < Resetn~input_o $end
$var wire 1 = lock~input_o $end
$var wire 1 > Run~input_o $end
$var wire 1 ? Done~output_o $end
$var wire 1 @ BusWires[0]~output_o $end
$var wire 1 A BusWires[1]~output_o $end
$var wire 1 B BusWires[2]~output_o $end
$var wire 1 C BusWires[3]~output_o $end
$var wire 1 D BusWires[4]~output_o $end
$var wire 1 E BusWires[5]~output_o $end
$var wire 1 F BusWires[6]~output_o $end
$var wire 1 G BusWires[7]~output_o $end
$var wire 1 H BusWires[8]~output_o $end
$var wire 1 I BusWires[9]~output_o $end
$var wire 1 J BusWires[10]~output_o $end
$var wire 1 K BusWires[11]~output_o $end
$var wire 1 L BusWires[12]~output_o $end
$var wire 1 M BusWires[13]~output_o $end
$var wire 1 N BusWires[14]~output_o $end
$var wire 1 O BusWires[15]~output_o $end
$var wire 1 P DIN[0]~input_o $end
$var wire 1 Q DIN[1]~input_o $end
$var wire 1 R DIN[2]~input_o $end
$var wire 1 S DIN[3]~input_o $end
$var wire 1 T DIN[4]~input_o $end
$var wire 1 U DIN[5]~input_o $end
$var wire 1 V DIN[6]~input_o $end
$var wire 1 W DIN[7]~input_o $end
$var wire 1 X DIN[8]~input_o $end
$var wire 1 Y DIN[9]~input_o $end
$var wire 1 Z DIN[10]~input_o $end
$var wire 1 [ DIN[11]~input_o $end
$var wire 1 \ DIN[12]~input_o $end
$var wire 1 ] DIN[13]~input_o $end
$var wire 1 ^ DIN[14]~input_o $end
$var wire 1 _ DIN[15]~input_o $end
$upscope $end
$upscope $end
$enddefinitions $end
#0
$dumpvars
b0 !
0"
0#
0$
04
03
02
01
00
0/
0.
0-
0,
0+
0*
0)
0(
0'
0&
0%
05
06
17
x8
19
1:
1;
0<
0=
0>
0?
0@
0A
0B
0C
0D
0E
0F
0G
0H
0I
0J
0K
0L
0M
0N
0O
0P
0Q
0R
0S
0T
0U
0V
0W
0X
0Y
0Z
0[
0\
0]
0^
0_
$end
#15000
b1000000000000000 !
b1100000000000000 !
b1110000000000000 !
b1111000000000000 !
b1111100000000000 !
b1111110000000000 !
b1111111000000000 !
b1111111100000000 !
b1111111110000000 !
b1111111111000000 !
b1111111111100000 !
b1111111111110000 !
b1111111111111000 !
b1111111111111100 !
b1111111111111110 !
b1111111111111111 !
1P
1Q
1R
1S
1T
1U
1V
1W
1X
1Y
1Z
1[
1\
1]
1^
1_
1O
1N
1M
1L
1K
1J
1I
1H
1G
1F
1E
1D
1C
1B
1A
1@
14
13
12
11
10
1/
1.
1-
1,
1+
1*
1)
1(
1'
1&
1%
#30000
b111111111111111 !
b11111111111111 !
b1111111111111 !
b111111111111 !
b11111111111 !
b1111111111 !
b111111111 !
b11111111 !
b1111111 !
b111111 !
b11111 !
b1111 !
b111 !
b11 !
b1 !
b0 !
0P
0Q
0R
0S
0T
0U
0V
0W
0X
0Y
0Z
0[
0\
0]
0^
0_
0O
0N
0M
0L
0K
0J
0I
0H
0G
0F
0E
0D
0C
0B
0A
0@
04
03
02
01
00
0/
0.
0-
0,
0+
0*
0)
0(
0'
0&
0%
#45000
b1000000000000000 !
b1100000000000000 !
b1110000000000000 !
b1111000000000000 !
b1111100000000000 !
b1111110000000000 !
b1111111000000000 !
b1111111100000000 !
b1111111110000000 !
b1111111111000000 !
b1111111111100000 !
b1111111111110000 !
b1111111111111000 !
b1111111111111100 !
b1111111111111110 !
b1111111111111111 !
1P
1Q
1R
1S
1T
1U
1V
1W
1X
1Y
1Z
1[
1\
1]
1^
1_
1O
1N
1M
1L
1K
1J
1I
1H
1G
1F
1E
1D
1C
1B
1A
1@
14
13
12
11
10
1/
1.
1-
1,
1+
1*
1)
1(
1'
1&
1%
#60000
b111111111111111 !
b11111111111111 !
b1111111111111 !
b111111111111 !
b11111111111 !
b1111111111 !
b111111111 !
b11111111 !
b1111111 !
b111111 !
b11111 !
b1111 !
b111 !
b11 !
b1 !
b0 !
0P
0Q
0R
0S
0T
0U
0V
0W
0X
0Y
0Z
0[
0\
0]
0^
0_
0O
0N
0M
0L
0K
0J
0I
0H
0G
0F
0E
0D
0C
0B
0A
0@
04
03
02
01
00
0/
0.
0-
0,
0+
0*
0)
0(
0'
0&
0%
#75000
b1000000000000000 !
b1100000000000000 !
b1110000000000000 !
b1111000000000000 !
b1111100000000000 !
b1111110000000000 !
b1111111000000000 !
b1111111100000000 !
b1111111110000000 !
b1111111111000000 !
b1111111111100000 !
b1111111111110000 !
b1111111111111000 !
b1111111111111100 !
b1111111111111110 !
b1111111111111111 !
1P
1Q
1R
1S
1T
1U
1V
1W
1X
1Y
1Z
1[
1\
1]
1^
1_
1O
1N
1M
1L
1K
1J
1I
1H
1G
1F
1E
1D
1C
1B
1A
1@
14
13
12
11
10
1/
1.
1-
1,
1+
1*
1)
1(
1'
1&
1%
#90000
b111111111111111 !
b11111111111111 !
b1111111111111 !
b111111111111 !
b11111111111 !
b1111111111 !
b111111111 !
b11111111 !
b1111111 !
b111111 !
b11111 !
b1111 !
b111 !
b11 !
b1 !
b0 !
0P
0Q
0R
0S
0T
0U
0V
0W
0X
0Y
0Z
0[
0\
0]
0^
0_
0O
0N
0M
0L
0K
0J
0I
0H
0G
0F
0E
0D
0C
0B
0A
0@
04
03
02
01
00
0/
0.
0-
0,
0+
0*
0)
0(
0'
0&
0%
#105000
b1000000000000000 !
b1100000000000000 !
b1110000000000000 !
b1111000000000000 !
b1111100000000000 !
b1111110000000000 !
b1111111000000000 !
b1111111100000000 !
b1111111110000000 !
b1111111111000000 !
b1111111111100000 !
b1111111111110000 !
b1111111111111000 !
b1111111111111100 !
b1111111111111110 !
b1111111111111111 !
1P
1Q
1R
1S
1T
1U
1V
1W
1X
1Y
1Z
1[
1\
1]
1^
1_
1O
1N
1M
1L
1K
1J
1I
1H
1G
1F
1E
1D
1C
1B
1A
1@
14
13
12
11
10
1/
1.
1-
1,
1+
1*
1)
1(
1'
1&
1%
#120000
b111111111111111 !
b11111111111111 !
b1111111111111 !
b111111111111 !
b11111111111 !
b1111111111 !
b111111111 !
b11111111 !
b1111111 !
b111111 !
b11111 !
b1111 !
b111 !
b11 !
b1 !
b0 !
0P
0Q
0R
0S
0T
0U
0V
0W
0X
0Y
0Z
0[
0\
0]
0^
0_
0O
0N
0M
0L
0K
0J
0I
0H
0G
0F
0E
0D
0C
0B
0A
0@
04
03
02
01
00
0/
0.
0-
0,
0+
0*
0)
0(
0'
0&
0%
#135000
b1000000000000000 !
b1100000000000000 !
b1110000000000000 !
b1111000000000000 !
b1111100000000000 !
b1111110000000000 !
b1111111000000000 !
b1111111100000000 !
b1111111110000000 !
b1111111111000000 !
b1111111111100000 !
b1111111111110000 !
b1111111111111000 !
b1111111111111100 !
b1111111111111110 !
b1111111111111111 !
1P
1Q
1R
1S
1T
1U
1V
1W
1X
1Y
1Z
1[
1\
1]
1^
1_
1O
1N
1M
1L
1K
1J
1I
1H
1G
1F
1E
1D
1C
1B
1A
1@
14
13
12
11
10
1/
1.
1-
1,
1+
1*
1)
1(
1'
1&
1%
#150000
b111111111111111 !
b11111111111111 !
b1111111111111 !
b111111111111 !
b11111111111 !
b1111111111 !
b111111111 !
b11111111 !
b1111111 !
b111111 !
b11111 !
b1111 !
b111 !
b11 !
b1 !
b0 !
0P
0Q
0R
0S
0T
0U
0V
0W
0X
0Y
0Z
0[
0\
0]
0^
0_
0O
0N
0M
0L
0K
0J
0I
0H
0G
0F
0E
0D
0C
0B
0A
0@
04
03
02
01
00
0/
0.
0-
0,
0+
0*
0)
0(
0'
0&
0%
#165000
b1000000000000000 !
b1100000000000000 !
b1110000000000000 !
b1111000000000000 !
b1111100000000000 !
b1111110000000000 !
b1111111000000000 !
b1111111100000000 !
b1111111110000000 !
b1111111111000000 !
b1111111111100000 !
b1111111111110000 !
b1111111111111000 !
b1111111111111100 !
b1111111111111110 !
b1111111111111111 !
1P
1Q
1R
1S
1T
1U
1V
1W
1X
1Y
1Z
1[
1\
1]
1^
1_
1O
1N
1M
1L
1K
1J
1I
1H
1G
1F
1E
1D
1C
1B
1A
1@
14
13
12
11
10
1/
1.
1-
1,
1+
1*
1)
1(
1'
1&
1%
#180000
b111111111111111 !
b11111111111111 !
b1111111111111 !
b111111111111 !
b11111111111 !
b1111111111 !
b111111111 !
b11111111 !
b1111111 !
b111111 !
b11111 !
b1111 !
b111 !
b11 !
b1 !
b0 !
0P
0Q
0R
0S
0T
0U
0V
0W
0X
0Y
0Z
0[
0\
0]
0^
0_
0O
0N
0M
0L
0K
0J
0I
0H
0G
0F
0E
0D
0C
0B
0A
0@
04
03
02
01
00
0/
0.
0-
0,
0+
0*
0)
0(
0'
0&
0%
#195000
b1000000000000000 !
b1100000000000000 !
b1110000000000000 !
b1111000000000000 !
b1111100000000000 !
b1111110000000000 !
b1111111000000000 !
b1111111100000000 !
b1111111110000000 !
b1111111111000000 !
b1111111111100000 !
b1111111111110000 !
b1111111111111000 !
b1111111111111100 !
b1111111111111110 !
b1111111111111111 !
1P
1Q
1R
1S
1T
1U
1V
1W
1X
1Y
1Z
1[
1\
1]
1^
1_
1O
1N
1M
1L
1K
1J
1I
1H
1G
1F
1E
1D
1C
1B
1A
1@
14
13
12
11
10
1/
1.
1-
1,
1+
1*
1)
1(
1'
1&
1%
#210000
b111111111111111 !
b11111111111111 !
b1111111111111 !
b111111111111 !
b11111111111 !
b1111111111 !
b111111111 !
b11111111 !
b1111111 !
b111111 !
b11111 !
b1111 !
b111 !
b11 !
b1 !
b0 !
0P
0Q
0R
0S
0T
0U
0V
0W
0X
0Y
0Z
0[
0\
0]
0^
0_
0O
0N
0M
0L
0K
0J
0I
0H
0G
0F
0E
0D
0C
0B
0A
0@
04
03
02
01
00
0/
0.
0-
0,
0+
0*
0)
0(
0'
0&
0%
#225000
b1000000000000000 !
b1100000000000000 !
b1110000000000000 !
b1111000000000000 !
b1111100000000000 !
b1111110000000000 !
b1111111000000000 !
b1111111100000000 !
b1111111110000000 !
b1111111111000000 !
b1111111111100000 !
b1111111111110000 !
b1111111111111000 !
b1111111111111100 !
b1111111111111110 !
b1111111111111111 !
1P
1Q
1R
1S
1T
1U
1V
1W
1X
1Y
1Z
1[
1\
1]
1^
1_
1O
1N
1M
1L
1K
1J
1I
1H
1G
1F
1E
1D
1C
1B
1A
1@
14
13
12
11
10
1/
1.
1-
1,
1+
1*
1)
1(
1'
1&
1%
#240000
b111111111111111 !
b11111111111111 !
b1111111111111 !
b111111111111 !
b11111111111 !
b1111111111 !
b111111111 !
b11111111 !
b1111111 !
b111111 !
b11111 !
b1111 !
b111 !
b11 !
b1 !
b0 !
0P
0Q
0R
0S
0T
0U
0V
0W
0X
0Y
0Z
0[
0\
0]
0^
0_
0O
0N
0M
0L
0K
0J
0I
0H
0G
0F
0E
0D
0C
0B
0A
0@
04
03
02
01
00
0/
0.
0-
0,
0+
0*
0)
0(
0'
0&
0%
#255000
b1000000000000000 !
b1100000000000000 !
b1110000000000000 !
b1111000000000000 !
b1111100000000000 !
b1111110000000000 !
b1111111000000000 !
b1111111100000000 !
b1111111110000000 !
b1111111111000000 !
b1111111111100000 !
b1111111111110000 !
b1111111111111000 !
b1111111111111100 !
b1111111111111110 !
b1111111111111111 !
1P
1Q
1R
1S
1T
1U
1V
1W
1X
1Y
1Z
1[
1\
1]
1^
1_
1O
1N
1M
1L
1K
1J
1I
1H
1G
1F
1E
1D
1C
1B
1A
1@
14
13
12
11
10
1/
1.
1-
1,
1+
1*
1)
1(
1'
1&
1%
#270000
b111111111111111 !
b11111111111111 !
b1111111111111 !
b111111111111 !
b11111111111 !
b1111111111 !
b111111111 !
b11111111 !
b1111111 !
b111111 !
b11111 !
b1111 !
b111 !
b11 !
b1 !
b0 !
0P
0Q
0R
0S
0T
0U
0V
0W
0X
0Y
0Z
0[
0\
0]
0^
0_
0O
0N
0M
0L
0K
0J
0I
0H
0G
0F
0E
0D
0C
0B
0A
0@
04
03
02
01
00
0/
0.
0-
0,
0+
0*
0)
0(
0'
0&
0%
#285000
b1000000000000000 !
b1100000000000000 !
b1110000000000000 !
b1111000000000000 !
b1111100000000000 !
b1111110000000000 !
b1111111000000000 !
b1111111100000000 !
b1111111110000000 !
b1111111111000000 !
b1111111111100000 !
b1111111111110000 !
b1111111111111000 !
b1111111111111100 !
b1111111111111110 !
b1111111111111111 !
1P
1Q
1R
1S
1T
1U
1V
1W
1X
1Y
1Z
1[
1\
1]
1^
1_
1O
1N
1M
1L
1K
1J
1I
1H
1G
1F
1E
1D
1C
1B
1A
1@
14
13
12
11
10
1/
1.
1-
1,
1+
1*
1)
1(
1'
1&
1%
#300000
b111111111111111 !
b11111111111111 !
b1111111111111 !
b111111111111 !
b11111111111 !
b1111111111 !
b111111111 !
b11111111 !
b1111111 !
b111111 !
b11111 !
b1111 !
b111 !
b11 !
b1 !
b0 !
0P
0Q
0R
0S
0T
0U
0V
0W
0X
0Y
0Z
0[
0\
0]
0^
0_
0O
0N
0M
0L
0K
0J
0I
0H
0G
0F
0E
0D
0C
0B
0A
0@
04
03
02
01
00
0/
0.
0-
0,
0+
0*
0)
0(
0'
0&
0%
#315000
b1000000000000000 !
b1100000000000000 !
b1110000000000000 !
b1111000000000000 !
b1111100000000000 !
b1111110000000000 !
b1111111000000000 !
b1111111100000000 !
b1111111110000000 !
b1111111111000000 !
b1111111111100000 !
b1111111111110000 !
b1111111111111000 !
b1111111111111100 !
b1111111111111110 !
b1111111111111111 !
1P
1Q
1R
1S
1T
1U
1V
1W
1X
1Y
1Z
1[
1\
1]
1^
1_
1O
1N
1M
1L
1K
1J
1I
1H
1G
1F
1E
1D
1C
1B
1A
1@
14
13
12
11
10
1/
1.
1-
1,
1+
1*
1)
1(
1'
1&
1%
#330000
b111111111111111 !
b11111111111111 !
b1111111111111 !
b111111111111 !
b11111111111 !
b1111111111 !
b111111111 !
b11111111 !
b1111111 !
b111111 !
b11111 !
b1111 !
b111 !
b11 !
b1 !
b0 !
0P
0Q
0R
0S
0T
0U
0V
0W
0X
0Y
0Z
0[
0\
0]
0^
0_
0O
0N
0M
0L
0K
0J
0I
0H
0G
0F
0E
0D
0C
0B
0A
0@
04
03
02
01
00
0/
0.
0-
0,
0+
0*
0)
0(
0'
0&
0%
#345000
b1000000000000000 !
b1100000000000000 !
b1110000000000000 !
b1111000000000000 !
b1111100000000000 !
b1111110000000000 !
b1111111000000000 !
b1111111100000000 !
b1111111110000000 !
b1111111111000000 !
b1111111111100000 !
b1111111111110000 !
b1111111111111000 !
b1111111111111100 !
b1111111111111110 !
b1111111111111111 !
1P
1Q
1R
1S
1T
1U
1V
1W
1X
1Y
1Z
1[
1\
1]
1^
1_
1O
1N
1M
1L
1K
1J
1I
1H
1G
1F
1E
1D
1C
1B
1A
1@
14
13
12
11
10
1/
1.
1-
1,
1+
1*
1)
1(
1'
1&
1%
#360000
b111111111111111 !
b11111111111111 !
b1111111111111 !
b111111111111 !
b11111111111 !
b1111111111 !
b111111111 !
b11111111 !
b1111111 !
b111111 !
b11111 !
b1111 !
b111 !
b11 !
b1 !
b0 !
0P
0Q
0R
0S
0T
0U
0V
0W
0X
0Y
0Z
0[
0\
0]
0^
0_
0O
0N
0M
0L
0K
0J
0I
0H
0G
0F
0E
0D
0C
0B
0A
0@
04
03
02
01
00
0/
0.
0-
0,
0+
0*
0)
0(
0'
0&
0%
#375000
b1000000000000000 !
b1100000000000000 !
b1110000000000000 !
b1111000000000000 !
b1111100000000000 !
b1111110000000000 !
b1111111000000000 !
b1111111100000000 !
b1111111110000000 !
b1111111111000000 !
b1111111111100000 !
b1111111111110000 !
b1111111111111000 !
b1111111111111100 !
b1111111111111110 !
b1111111111111111 !
1P
1Q
1R
1S
1T
1U
1V
1W
1X
1Y
1Z
1[
1\
1]
1^
1_
1O
1N
1M
1L
1K
1J
1I
1H
1G
1F
1E
1D
1C
1B
1A
1@
14
13
12
11
10
1/
1.
1-
1,
1+
1*
1)
1(
1'
1&
1%
#390000
b111111111111111 !
b11111111111111 !
b1111111111111 !
b111111111111 !
b11111111111 !
b1111111111 !
b111111111 !
b11111111 !
b1111111 !
b111111 !
b11111 !
b1111 !
b111 !
b11 !
b1 !
b0 !
0P
0Q
0R
0S
0T
0U
0V
0W
0X
0Y
0Z
0[
0\
0]
0^
0_
0O
0N
0M
0L
0K
0J
0I
0H
0G
0F
0E
0D
0C
0B
0A
0@
04
03
02
01
00
0/
0.
0-
0,
0+
0*
0)
0(
0'
0&
0%
#405000
b1000000000000000 !
b1100000000000000 !
b1110000000000000 !
b1111000000000000 !
b1111100000000000 !
b1111110000000000 !
b1111111000000000 !
b1111111100000000 !
b1111111110000000 !
b1111111111000000 !
b1111111111100000 !
b1111111111110000 !
b1111111111111000 !
b1111111111111100 !
b1111111111111110 !
b1111111111111111 !
1P
1Q
1R
1S
1T
1U
1V
1W
1X
1Y
1Z
1[
1\
1]
1^
1_
1O
1N
1M
1L
1K
1J
1I
1H
1G
1F
1E
1D
1C
1B
1A
1@
14
13
12
11
10
1/
1.
1-
1,
1+
1*
1)
1(
1'
1&
1%
#420000
b111111111111111 !
b11111111111111 !
b1111111111111 !
b111111111111 !
b11111111111 !
b1111111111 !
b111111111 !
b11111111 !
b1111111 !
b111111 !
b11111 !
b1111 !
b111 !
b11 !
b1 !
b0 !
0P
0Q
0R
0S
0T
0U
0V
0W
0X
0Y
0Z
0[
0\
0]
0^
0_
0O
0N
0M
0L
0K
0J
0I
0H
0G
0F
0E
0D
0C
0B
0A
0@
04
03
02
01
00
0/
0.
0-
0,
0+
0*
0)
0(
0'
0&
0%
#435000
b1000000000000000 !
b1100000000000000 !
b1110000000000000 !
b1111000000000000 !
b1111100000000000 !
b1111110000000000 !
b1111111000000000 !
b1111111100000000 !
b1111111110000000 !
b1111111111000000 !
b1111111111100000 !
b1111111111110000 !
b1111111111111000 !
b1111111111111100 !
b1111111111111110 !
b1111111111111111 !
1P
1Q
1R
1S
1T
1U
1V
1W
1X
1Y
1Z
1[
1\
1]
1^
1_
1O
1N
1M
1L
1K
1J
1I
1H
1G
1F
1E
1D
1C
1B
1A
1@
14
13
12
11
10
1/
1.
1-
1,
1+
1*
1)
1(
1'
1&
1%
#450000
b111111111111111 !
b11111111111111 !
b1111111111111 !
b111111111111 !
b11111111111 !
b1111111111 !
b111111111 !
b11111111 !
b1111111 !
b111111 !
b11111 !
b1111 !
b111 !
b11 !
b1 !
b0 !
0P
0Q
0R
0S
0T
0U
0V
0W
0X
0Y
0Z
0[
0\
0]
0^
0_
0O
0N
0M
0L
0K
0J
0I
0H
0G
0F
0E
0D
0C
0B
0A
0@
04
03
02
01
00
0/
0.
0-
0,
0+
0*
0)
0(
0'
0&
0%
#465000
b1000000000000000 !
b1100000000000000 !
b1110000000000000 !
b1111000000000000 !
b1111100000000000 !
b1111110000000000 !
b1111111000000000 !
b1111111100000000 !
b1111111110000000 !
b1111111111000000 !
b1111111111100000 !
b1111111111110000 !
b1111111111111000 !
b1111111111111100 !
b1111111111111110 !
b1111111111111111 !
1P
1Q
1R
1S
1T
1U
1V
1W
1X
1Y
1Z
1[
1\
1]
1^
1_
1O
1N
1M
1L
1K
1J
1I
1H
1G
1F
1E
1D
1C
1B
1A
1@
14
13
12
11
10
1/
1.
1-
1,
1+
1*
1)
1(
1'
1&
1%
#480000
b111111111111111 !
b11111111111111 !
b1111111111111 !
b111111111111 !
b11111111111 !
b1111111111 !
b111111111 !
b11111111 !
b1111111 !
b111111 !
b11111 !
b1111 !
b111 !
b11 !
b1 !
b0 !
0P
0Q
0R
0S
0T
0U
0V
0W
0X
0Y
0Z
0[
0\
0]
0^
0_
0O
0N
0M
0L
0K
0J
0I
0H
0G
0F
0E
0D
0C
0B
0A
0@
04
03
02
01
00
0/
0.
0-
0,
0+
0*
0)
0(
0'
0&
0%
#495000
b1000000000000000 !
b1100000000000000 !
b1110000000000000 !
b1111000000000000 !
b1111100000000000 !
b1111110000000000 !
b1111111000000000 !
b1111111100000000 !
b1111111110000000 !
b1111111111000000 !
b1111111111100000 !
b1111111111110000 !
b1111111111111000 !
b1111111111111100 !
b1111111111111110 !
b1111111111111111 !
1P
1Q
1R
1S
1T
1U
1V
1W
1X
1Y
1Z
1[
1\
1]
1^
1_
1O
1N
1M
1L
1K
1J
1I
1H
1G
1F
1E
1D
1C
1B
1A
1@
14
13
12
11
10
1/
1.
1-
1,
1+
1*
1)
1(
1'
1&
1%
#510000
b111111111111111 !
b11111111111111 !
b1111111111111 !
b111111111111 !
b11111111111 !
b1111111111 !
b111111111 !
b11111111 !
b1111111 !
b111111 !
b11111 !
b1111 !
b111 !
b11 !
b1 !
b0 !
0P
0Q
0R
0S
0T
0U
0V
0W
0X
0Y
0Z
0[
0\
0]
0^
0_
0O
0N
0M
0L
0K
0J
0I
0H
0G
0F
0E
0D
0C
0B
0A
0@
04
03
02
01
00
0/
0.
0-
0,
0+
0*
0)
0(
0'
0&
0%
#525000
b1000000000000000 !
b1100000000000000 !
b1110000000000000 !
b1111000000000000 !
b1111100000000000 !
b1111110000000000 !
b1111111000000000 !
b1111111100000000 !
b1111111110000000 !
b1111111111000000 !
b1111111111100000 !
b1111111111110000 !
b1111111111111000 !
b1111111111111100 !
b1111111111111110 !
b1111111111111111 !
1P
1Q
1R
1S
1T
1U
1V
1W
1X
1Y
1Z
1[
1\
1]
1^
1_
1O
1N
1M
1L
1K
1J
1I
1H
1G
1F
1E
1D
1C
1B
1A
1@
14
13
12
11
10
1/
1.
1-
1,
1+
1*
1)
1(
1'
1&
1%
#540000
b111111111111111 !
b11111111111111 !
b1111111111111 !
b111111111111 !
b11111111111 !
b1111111111 !
b111111111 !
b11111111 !
b1111111 !
b111111 !
b11111 !
b1111 !
b111 !
b11 !
b1 !
b0 !
0P
0Q
0R
0S
0T
0U
0V
0W
0X
0Y
0Z
0[
0\
0]
0^
0_
0O
0N
0M
0L
0K
0J
0I
0H
0G
0F
0E
0D
0C
0B
0A
0@
04
03
02
01
00
0/
0.
0-
0,
0+
0*
0)
0(
0'
0&
0%
#555000
b1000000000000000 !
b1100000000000000 !
b1110000000000000 !
b1111000000000000 !
b1111100000000000 !
b1111110000000000 !
b1111111000000000 !
b1111111100000000 !
b1111111110000000 !
b1111111111000000 !
b1111111111100000 !
b1111111111110000 !
b1111111111111000 !
b1111111111111100 !
b1111111111111110 !
b1111111111111111 !
1P
1Q
1R
1S
1T
1U
1V
1W
1X
1Y
1Z
1[
1\
1]
1^
1_
1O
1N
1M
1L
1K
1J
1I
1H
1G
1F
1E
1D
1C
1B
1A
1@
14
13
12
11
10
1/
1.
1-
1,
1+
1*
1)
1(
1'
1&
1%
#570000
b111111111111111 !
b11111111111111 !
b1111111111111 !
b111111111111 !
b11111111111 !
b1111111111 !
b111111111 !
b11111111 !
b1111111 !
b111111 !
b11111 !
b1111 !
b111 !
b11 !
b1 !
b0 !
0P
0Q
0R
0S
0T
0U
0V
0W
0X
0Y
0Z
0[
0\
0]
0^
0_
0O
0N
0M
0L
0K
0J
0I
0H
0G
0F
0E
0D
0C
0B
0A
0@
04
03
02
01
00
0/
0.
0-
0,
0+
0*
0)
0(
0'
0&
0%
#585000
b1000000000000000 !
b1100000000000000 !
b1110000000000000 !
b1111000000000000 !
b1111100000000000 !
b1111110000000000 !
b1111111000000000 !
b1111111100000000 !
b1111111110000000 !
b1111111111000000 !
b1111111111100000 !
b1111111111110000 !
b1111111111111000 !
b1111111111111100 !
b1111111111111110 !
b1111111111111111 !
1P
1Q
1R
1S
1T
1U
1V
1W
1X
1Y
1Z
1[
1\
1]
1^
1_
1O
1N
1M
1L
1K
1J
1I
1H
1G
1F
1E
1D
1C
1B
1A
1@
14
13
12
11
10
1/
1.
1-
1,
1+
1*
1)
1(
1'
1&
1%
#600000
b111111111111111 !
b11111111111111 !
b1111111111111 !
b111111111111 !
b11111111111 !
b1111111111 !
b111111111 !
b11111111 !
b1111111 !
b111111 !
b11111 !
b1111 !
b111 !
b11 !
b1 !
b0 !
0P
0Q
0R
0S
0T
0U
0V
0W
0X
0Y
0Z
0[
0\
0]
0^
0_
0O
0N
0M
0L
0K
0J
0I
0H
0G
0F
0E
0D
0C
0B
0A
0@
04
03
02
01
00
0/
0.
0-
0,
0+
0*
0)
0(
0'
0&
0%
#615000
b1000000000000000 !
b1100000000000000 !
b1110000000000000 !
b1111000000000000 !
b1111100000000000 !
b1111110000000000 !
b1111111000000000 !
b1111111100000000 !
b1111111110000000 !
b1111111111000000 !
b1111111111100000 !
b1111111111110000 !
b1111111111111000 !
b1111111111111100 !
b1111111111111110 !
b1111111111111111 !
1P
1Q
1R
1S
1T
1U
1V
1W
1X
1Y
1Z
1[
1\
1]
1^
1_
1O
1N
1M
1L
1K
1J
1I
1H
1G
1F
1E
1D
1C
1B
1A
1@
14
13
12
11
10
1/
1.
1-
1,
1+
1*
1)
1(
1'
1&
1%
#630000
b111111111111111 !
b11111111111111 !
b1111111111111 !
b111111111111 !
b11111111111 !
b1111111111 !
b111111111 !
b11111111 !
b1111111 !
b111111 !
b11111 !
b1111 !
b111 !
b11 !
b1 !
b0 !
0P
0Q
0R
0S
0T
0U
0V
0W
0X
0Y
0Z
0[
0\
0]
0^
0_
0O
0N
0M
0L
0K
0J
0I
0H
0G
0F
0E
0D
0C
0B
0A
0@
04
03
02
01
00
0/
0.
0-
0,
0+
0*
0)
0(
0'
0&
0%
#645000
b1000000000000000 !
b1100000000000000 !
b1110000000000000 !
b1111000000000000 !
b1111100000000000 !
b1111110000000000 !
b1111111000000000 !
b1111111100000000 !
b1111111110000000 !
b1111111111000000 !
b1111111111100000 !
b1111111111110000 !
b1111111111111000 !
b1111111111111100 !
b1111111111111110 !
b1111111111111111 !
1P
1Q
1R
1S
1T
1U
1V
1W
1X
1Y
1Z
1[
1\
1]
1^
1_
1O
1N
1M
1L
1K
1J
1I
1H
1G
1F
1E
1D
1C
1B
1A
1@
14
13
12
11
10
1/
1.
1-
1,
1+
1*
1)
1(
1'
1&
1%
#660000
b111111111111111 !
b11111111111111 !
b1111111111111 !
b111111111111 !
b11111111111 !
b1111111111 !
b111111111 !
b11111111 !
b1111111 !
b111111 !
b11111 !
b1111 !
b111 !
b11 !
b1 !
b0 !
0P
0Q
0R
0S
0T
0U
0V
0W
0X
0Y
0Z
0[
0\
0]
0^
0_
0O
0N
0M
0L
0K
0J
0I
0H
0G
0F
0E
0D
0C
0B
0A
0@
04
03
02
01
00
0/
0.
0-
0,
0+
0*
0)
0(
0'
0&
0%
#675000
b1000000000000000 !
b1100000000000000 !
b1110000000000000 !
b1111000000000000 !
b1111100000000000 !
b1111110000000000 !
b1111111000000000 !
b1111111100000000 !
b1111111110000000 !
b1111111111000000 !
b1111111111100000 !
b1111111111110000 !
b1111111111111000 !
b1111111111111100 !
b1111111111111110 !
b1111111111111111 !
1P
1Q
1R
1S
1T
1U
1V
1W
1X
1Y
1Z
1[
1\
1]
1^
1_
1O
1N
1M
1L
1K
1J
1I
1H
1G
1F
1E
1D
1C
1B
1A
1@
14
13
12
11
10
1/
1.
1-
1,
1+
1*
1)
1(
1'
1&
1%
#690000
b111111111111111 !
b11111111111111 !
b1111111111111 !
b111111111111 !
b11111111111 !
b1111111111 !
b111111111 !
b11111111 !
b1111111 !
b111111 !
b11111 !
b1111 !
b111 !
b11 !
b1 !
b0 !
0P
0Q
0R
0S
0T
0U
0V
0W
0X
0Y
0Z
0[
0\
0]
0^
0_
0O
0N
0M
0L
0K
0J
0I
0H
0G
0F
0E
0D
0C
0B
0A
0@
04
03
02
01
00
0/
0.
0-
0,
0+
0*
0)
0(
0'
0&
0%
#705000
b1000000000000000 !
b1100000000000000 !
b1110000000000000 !
b1111000000000000 !
b1111100000000000 !
b1111110000000000 !
b1111111000000000 !
b1111111100000000 !
b1111111110000000 !
b1111111111000000 !
b1111111111100000 !
b1111111111110000 !
b1111111111111000 !
b1111111111111100 !
b1111111111111110 !
b1111111111111111 !
1P
1Q
1R
1S
1T
1U
1V
1W
1X
1Y
1Z
1[
1\
1]
1^
1_
1O
1N
1M
1L
1K
1J
1I
1H
1G
1F
1E
1D
1C
1B
1A
1@
14
13
12
11
10
1/
1.
1-
1,
1+
1*
1)
1(
1'
1&
1%
